<?xml version="1.0" encoding="UTF-8" standalone="no"?>
<svg
   xmlns:dc="http://purl.org/dc/elements/1.1/"
   xmlns:cc="http://creativecommons.org/ns#"
   xmlns:rdf="http://www.w3.org/1999/02/22-rdf-syntax-ns#"
   xmlns:svg="http://www.w3.org/2000/svg"
   xmlns="http://www.w3.org/2000/svg"
   xmlns:sodipodi="http://sodipodi.sourceforge.net/DTD/sodipodi-0.dtd"
   xmlns:inkscape="http://www.inkscape.org/namespaces/inkscape"
   width="210mm"
   height="297mm"
   viewBox="0 0 210 297"
   version="1.1"
   id="svg8"
   sodipodi:docname="texturaPracticas.svg"
   inkscape:version="1.0.1 (0767f8302a, 2020-10-17)">
  <defs
     id="defs2" />
  <sodipodi:namedview
     id="base"
     pagecolor="#ffffff"
     bordercolor="#666666"
     borderopacity="1.0"
     inkscape:pageopacity="0.0"
     inkscape:pageshadow="2"
     inkscape:zoom="1.4"
     inkscape:cx="326.30328"
     inkscape:cy="132.51974"
     inkscape:document-units="mm"
     inkscape:current-layer="g797"
     inkscape:document-rotation="0"
     showgrid="false"
     inkscape:snap-global="true"
     inkscape:snap-nodes="false"
     inkscape:snap-bbox="true"
     inkscape:snap-bbox-edge-midpoints="true"
     inkscape:window-width="1294"
     inkscape:window-height="704"
     inkscape:window-x="72"
     inkscape:window-y="27"
     inkscape:window-maximized="1" />
  <metadata
     id="metadata5">
    <rdf:RDF>
      <cc:Work
         rdf:about="">
        <dc:format>image/svg+xml</dc:format>
        <dc:type
           rdf:resource="http://purl.org/dc/dcmitype/StillImage" />
      </cc:Work>
    </rdf:RDF>
  </metadata>
  <g
     inkscape:label="Capa 1"
     inkscape:groupmode="layer"
     id="layer1">
    <rect
       style="fill:none;stroke:#000000;stroke-width:0.264583"
       id="rect152"
       width="64"
       height="64"
       x="0.1322915"
       y="0.1322915" />
    <g
       id="g716"
       transform="matrix(0.95200277,0,0,0.95200277,1.5422625,3.2198606)">
      <g
         id="g734">
        <path
           style="fill:#aa0000;stroke:none;stroke-width:0.264583"
           id="path519"
           d="m 30.733097,16.835482 c 0.02774,0.540098 0.06456,1.079713 0.10136,1.61926 0.04464,0.644876 0.11114,1.28791 0.168478,1.931711 0.05849,0.587583 0.07944,1.177569 0.091,1.767617 0.01413,0.601611 -0.0046,1.203133 -0.0199,1.804489 -0.01879,0.818767 -0.02664,1.637788 -0.02265,2.456752 0.0086,0.885797 0.02862,1.771407 0.04467,2.657084 0.01352,0.771993 0.01916,1.54409 0.02193,2.316186 0.0069,0.569236 -0.0059,1.138283 -0.02903,1.707005 -0.02397,0.425564 -0.05009,0.850937 -0.07199,1.27663 -0.01564,0.395425 -0.03497,0.7907 -0.05078,1.186117 -0.01035,0.267819 -0.01421,0.535826 -0.01603,0.80382 -5.29e-4,0.102602 -7.94e-4,0.205205 -2.65e-4,0.307808 -1.43e-4,0.02931 7.94e-4,0.05859 0.0016,0.08788 0.134649,3.30455 3.472749,3.168533 3.3381,-0.136017 v 0 c 2.64e-4,0.01238 0.0013,0.0495 0.0011,0.03712 -2.65e-4,-0.09141 -9.8e-5,-0.182819 2.64e-4,-0.274227 0.0016,-0.231151 0.0047,-0.462314 0.01347,-0.693322 0.01519,-0.382622 0.03418,-0.765093 0.04903,-1.147731 0.02249,-0.437893 0.05003,-0.875421 0.07367,-1.313243 0.02482,-0.617667 0.03893,-1.235689 0.03173,-1.853904 -0.0029,-0.788262 -0.0086,-1.576525 -0.02246,-2.364684 -0.0158,-0.871146 -0.03543,-1.742226 -0.04417,-2.61349 -0.0042,-0.785023 0.0039,-1.570105 0.02162,-2.354942 0.01656,-0.651737 0.03573,-1.303655 0.02032,-1.955655 -0.01342,-0.6669 -0.03821,-1.333695 -0.103527,-1.997854 -0.05536,-0.620782 -0.119417,-1.240833 -0.163044,-1.862611 -0.03522,-0.515866 -0.07042,-1.031798 -0.09727,-1.548175 -0.154802,-3.303667 -3.492008,-3.147293 -3.337208,0.156374 z" />
        <path
           style="fill:#aa0000;stroke:none;stroke-width:0.264583"
           id="path533"
           d="m 30.764726,37.341776 c -0.07262,0.665405 -0.193268,1.324135 -0.316471,1.981641 -0.227787,1.125526 -0.419341,2.257705 -0.609256,3.390101 -0.162069,0.998306 -0.3316,1.995294 -0.513295,2.990212 -0.13972,0.701066 -0.262945,1.405012 -0.379996,2.110154 -0.06232,0.395693 -0.130493,0.790417 -0.198172,1.185209 -0.03691,0.207054 -0.06713,0.414933 -0.08727,0.624282 -0.01108,0.115524 -0.02349,0.230917 -0.0358,0.346316 -0.03397,0.29597 0.01619,0.591262 0.04509,0.88522 0.05731,0.594869 0.08821,1.191681 0.116996,1.78846 0.04082,0.798446 0.07662,1.597143 0.113434,2.395786 0.03421,0.790755 0.05223,1.582316 0.0409,2.373772 -0.0079,0.510049 -0.04254,1.019024 -0.05919,1.528745 -0.01469,0.48895 -0.0061,0.977758 0.01319,1.46637 0.01032,0.246865 0.0099,0.493858 0.0072,0.740845 -0.003,0.0632 0.0068,0.691977 0.0062,0.248525 0.01602,-0.1589 -0.0023,-0.0029 -0.0069,0.03494 -0.0023,0.01827 -0.0042,0.03658 -0.0061,0.0549 -0.317379,3.292028 3.008071,3.61263 3.325449,0.320602 v 0 c -9.39e-4,0.0077 -0.0032,0.03044 -0.0023,0.02284 0.0082,-0.06769 0.01724,-0.135268 0.02278,-0.203257 0.0027,-0.147747 0.0035,-0.294722 0.0015,-0.4424 0.0033,-0.303007 0.0028,-0.606042 -0.0096,-0.908889 -0.01619,-0.409385 -0.02463,-0.81885 -0.01226,-1.228564 0.01617,-0.52974 0.05484,-1.058656 0.06055,-1.5888 0.01134,-0.858038 -0.0062,-1.716173 -0.04413,-2.573442 -0.03692,-0.801109 -0.07286,-1.602269 -0.113782,-2.403181 -0.03159,-0.65297 -0.06625,-1.305935 -0.129395,-1.956771 -0.007,-0.07016 -0.01371,-0.140344 -0.02102,-0.210469 -0.0045,-0.04392 -0.0095,-0.08778 -0.01462,-0.131624 -0.0017,-0.0144 0.0019,-0.0556 -0.0055,-0.04317 -0.0088,0.01478 0.0013,0.03444 4.18e-4,0.05165 -0.0024,0.0535 -0.0071,0.106865 -0.0099,0.16034 -4.27e-4,0.0093 0.002,-0.0186 0.003,-0.02792 0.01372,-0.128593 0.0275,-0.257184 0.03979,-0.385923 0.01157,-0.125845 0.03266,-0.250517 0.0542,-0.37524 0.06852,-0.40044 0.137884,-0.800752 0.201021,-1.202094 0.114107,-0.687433 0.234454,-1.373641 0.370748,-2.057089 0.184552,-1.010767 0.357006,-2.023599 0.521631,-3.037809 0.186406,-1.111636 0.374337,-2.22306 0.598216,-3.327896 0.14121,-0.75498 0.277687,-1.511694 0.358123,-2.276033 0.317133,-3.292054 -3.008344,-3.612404 -3.325474,-0.32035 z" />
        <path
           style="fill:#aa0000;stroke:none;stroke-width:0.264583"
           id="path533-3"
           d="m 34.562907,37.306495 c 0.06629,0.666065 0.180665,1.325913 0.29761,1.984561 0.217071,1.127641 0.397849,2.261591 0.576985,3.395741 0.152568,0.999803 0.312608,1.998358 0.484833,2.994959 0.133046,0.702363 0.249571,1.407448 0.359909,2.113673 0.05855,0.396268 0.12297,0.791622 0.186891,1.18704 0.03494,0.207396 0.06318,0.415552 0.08133,0.625084 0.01,0.115624 0.02129,0.23113 0.03251,0.34664 0.03115,0.296281 -0.02181,0.591082 -0.05351,0.884751 -0.06296,0.594298 -0.09953,1.190789 -0.133999,1.787267 -0.04841,0.798022 -0.09181,1.596343 -0.136215,2.394599 -0.04173,0.790394 -0.06727,1.581747 -0.06347,2.373275 0.0031,0.510102 0.03285,1.019383 0.04465,1.529239 0.01004,0.489068 -0.0032,0.977773 -0.02713,1.466179 -0.01267,0.246755 -0.01461,0.493741 -0.01428,0.740742 0.0024,0.06323 -0.01343,0.691881 -0.0086,0.248454 -0.0145,-0.159044 0.0023,-0.0029 0.0065,0.035 0.0021,0.01829 0.0039,0.03662 0.0056,0.05495 0.286056,3.294899 -3.042293,3.583858 -3.328347,0.28896 v 0 c 8.66e-4,0.0077 0.0029,0.03047 0.0021,0.02286 -0.0075,-0.06777 -0.01595,-0.135426 -0.02085,-0.203464 -0.0013,-0.147767 -7.01e-4,-0.294742 0.0027,-0.442395 -3.85e-4,-0.303024 0.003,-0.606041 0.01829,-0.908756 0.02008,-0.409212 0.03242,-0.818578 0.02394,-1.228391 -0.01113,-0.529871 -0.04477,-1.05913 -0.04544,-1.589305 -0.0032,-0.858107 0.02255,-1.716036 0.0686,-2.572905 0.04454,-0.800722 0.0881,-1.601504 0.136633,-2.401991 0.0378,-0.65264 0.07867,-1.305245 0.147999,-1.955452 0.0077,-0.07009 0.01505,-0.140206 0.02302,-0.21026 0.0049,-0.04387 0.01038,-0.08768 0.01587,-0.131478 0.0018,-0.01439 -0.0014,-0.05562 0.0059,-0.04311 0.0087,0.01487 -0.0016,0.03442 -9.09e-4,0.05164 0.0019,0.05352 0.0061,0.106928 0.0083,0.160426 3.38e-4,0.0093 -0.0018,-0.01861 -0.0027,-0.02795 -0.0125,-0.128718 -0.02505,-0.257433 -0.03612,-0.386284 -0.01037,-0.125949 -0.03028,-0.250816 -0.05063,-0.375738 -0.06467,-0.401074 -0.130218,-0.802027 -0.189535,-1.203951 -0.107564,-0.688488 -0.221379,-1.375809 -0.351167,-2.060523 -0.174931,-1.012479 -0.337746,-2.026906 -0.492718,-3.042636 -0.175824,-1.113358 -0.353176,-2.22652 -0.566537,-3.333435 -0.134025,-0.756289 -0.263297,-1.514267 -0.336462,-2.279336 -0.285815,-3.294919 3.042558,-3.583627 3.328363,-0.288706 z" />
        <g
           id="g753">
          <path
             style="fill:#aa0000;stroke:none;stroke-width:0.264583"
             id="path558"
             d="m 30.806339,15.954051 c -0.447185,0.593845 -0.839213,1.226733 -1.226746,1.860362 -0.338952,0.575324 -0.670237,1.155219 -1.000262,1.73572 -0.288801,0.517806 -0.567084,1.041474 -0.834472,1.570639 -0.248875,0.5129 -0.509545,1.020096 -0.737815,1.542587 -0.03528,0.08934 -0.07057,0.178671 -0.105851,0.268006 -1.20464,3.080101 1.906733,4.296972 3.111373,1.216871 v 0 c 0.02093,-0.05439 0.04185,-0.108779 0.06278,-0.163168 0.194505,-0.463505 0.440094,-0.904168 0.652354,-1.359618 0.241694,-0.480114 0.495212,-0.95426 0.756007,-1.424263 0.31252,-0.549801 0.626573,-1.098819 0.946409,-1.644385 0.319106,-0.522387 0.640855,-1.044572 1.003086,-1.538538 2.043467,-2.600465 -0.583399,-4.664679 -2.626866,-2.064213 z" />
          <path
             style="fill:#aa0000;stroke:none;stroke-width:0.264583"
             id="path560"
             d="m 26.636728,24.036824 c -0.162724,0.537685 -0.285955,1.084988 -0.387215,1.637175 -0.126624,0.716028 -0.176539,1.4414 -0.219963,2.166155 -0.02212,0.473056 -0.05458,0.945454 -0.08886,1.417746 -0.03139,0.306874 -0.04387,0.61532 -0.07108,0.922493 -0.0082,0.07606 -0.01433,0.152869 -0.03263,0.227137 -0.02288,0.09514 -0.03836,0.191736 -0.05333,0.288351 -0.485119,3.27152 2.819615,3.761563 3.304734,0.490045 v 0 c 0.0013,-0.01736 -0.01095,0.04171 0.0011,-0.01505 0.05381,-0.232609 0.09083,-0.468895 0.108961,-0.707068 0.0267,-0.321206 0.04344,-0.643204 0.07436,-0.964096 0.03529,-0.486318 0.06876,-0.972751 0.09165,-1.459849 0.03543,-0.592019 0.07132,-1.184939 0.172424,-1.770297 0.07813,-0.438711 0.178472,-0.872352 0.307621,-1.299094 0.924258,-3.17552 -2.283503,-4.109161 -3.207761,-0.933642 z" />
        </g>
        <g
           id="g749">
          <path
             style="fill:#aa0000;stroke:none;stroke-width:0.264583"
             id="path562"
             d="m 31.546781,18.239979 c 0.283951,0.341851 0.578601,0.674575 0.866085,1.013429 0.30217,0.34616 0.564993,0.722744 0.826378,1.099748 0.24819,0.360377 0.49339,0.723023 0.725678,1.093898 0.212082,0.343247 0.390284,0.705809 0.564549,1.06925 0.170821,0.367794 0.331367,0.740225 0.497922,1.109954 0.123391,0.272339 0.24664,0.544908 0.392758,0.805937 0.0016,0.0033 0.0032,0.0066 0.0048,0.0099 1.579557,2.905714 4.514773,1.31012 2.935216,-1.595594 v 0 c -0.01437,-0.02611 -0.02873,-0.05221 -0.0431,-0.07832 -0.06797,-0.11234 -0.169023,-0.362891 -0.243787,-0.514379 -0.17772,-0.394287 -0.348308,-0.791794 -0.532064,-1.183341 -0.229232,-0.476992 -0.466809,-0.951037 -0.747302,-1.400441 -0.260096,-0.413137 -0.531564,-0.819003 -0.809273,-1.220504 -0.323316,-0.466226 -0.652389,-0.928995 -1.024774,-1.358007 -0.280326,-0.330116 -0.56702,-0.65478 -0.844288,-0.987489 -2.114536,-2.543012 -4.683368,-0.407007 -2.568831,2.136005 z" />
          <path
             style="fill:#aa0000;stroke:none;stroke-width:0.264583"
             id="path566"
             d="m 35.531123,24.980143 c 0.136845,0.266423 0.227729,0.552539 0.307552,0.840203 0.09509,0.343888 0.155302,0.695383 0.212098,1.047131 0.05551,0.3073 0.0817,0.61817 0.110897,0.928687 0.02117,0.241877 0.03451,0.484383 0.0497,0.726699 0.01156,0.183161 0.01561,0.36666 0.01778,0.550133 0.0013,0.168084 -4.5e-5,0.336134 0.0042,0.504177 0.0028,0.114315 0.02101,0.227298 0.02643,0.341352 0.0065,0.101623 0.01879,0.202623 0.03133,0.303606 0.423323,3.280088 3.736713,2.852468 3.31339,-0.427619 v 0 c -0.0029,-0.01924 -0.01212,-0.121624 -0.0085,-0.05209 -0.0024,-0.04324 -0.0016,-0.262961 -0.02297,-0.287562 -0.0032,-0.0037 -2.64e-4,0.0097 -5.29e-4,0.0145 -0.0021,-0.14555 -7.93e-4,-0.291383 -0.0026,-0.437036 -0.003,-0.239784 -0.0089,-0.479579 -0.0241,-0.718942 -0.01744,-0.276775 -0.03271,-0.55377 -0.0578,-0.829979 -0.03616,-0.384456 -0.07214,-0.769014 -0.139137,-1.149664 -0.07782,-0.47991 -0.164989,-0.958651 -0.296608,-1.427271 -0.153596,-0.532462 -0.333084,-1.059378 -0.599795,-1.54742 -1.604806,-2.891846 -4.52601,-1.270746 -2.921204,1.6211 z" />
        </g>
        <g
           id="g745">
          <circle
             style="fill:#aa0000;stroke:none;stroke-width:0.28798"
             id="path160"
             cx="32.13229"
             cy="-8.4666662"
             transform="scale(1,-1)"
             r="8.4666662" />
          <path
             style="fill:#800000;stroke:none;stroke-width:0.0526658"
             d="m 24.736874,4.1060286 c 0.3177,-1.6508282 0.775889,-1.4882731 1.464216,-2.1655835 1.417264,-1.39458182 3.720088,-3.8845311 6.71998,-4.1101097 1.198225,-0.090101 1.813408,-0.1637727 2.664934,-0.3191406 0.956111,-0.1744497 1.836036,0.00899 2.54329,0.2609287 1.013956,0.3611989 1.433281,0.5536568 1.552271,1.0435148 0.09676,0.39834422 0.764364,1.3401875 0.423425,3.3363096 -0.02457,0.1438786 -0.0027,3.7349006 -1.418085,2.8994658 -0.38573,-0.22768 -0.990859,-2.6582344 -2.453723,-2.9336578 -2.048984,-0.3857752 -2.31178,-0.4163883 -3.536265,-0.4119388 -1.661041,0.00603 -2.349218,0.1706713 -4.483066,1.0725009 -0.561628,0.2373616 -1.22288,0.5131252 -1.469449,0.6128075 -0.246569,0.099683 -0.762122,0.3893341 -1.145673,0.6436696 -0.700469,0.464486 -0.895357,0.586306 -0.937975,0.586306 -0.01265,0 0.0216,-0.2317825 0.07612,-0.5150725 z"
             id="path633"
             sodipodi:nodetypes="csssssssssssssc" />
          <path
             style="fill:#000000;stroke:none;stroke-width:0.264583"
             id="path647"
             d="m 29.751657,6.2238032 c -0.239045,-0.00361 -0.477731,0.00336 -0.716031,0.022146 -0.236458,0.022728 -0.469389,0.071011 -0.701432,0.120387 -0.187002,0.040327 -0.372128,0.088665 -0.55632,0.1401779 -0.117764,0.031246 -0.232458,0.072455 -0.348734,0.1085024 -0.07563,0.023006 -0.152985,0.039583 -0.230251,0.056011 -0.0318,0.00642 -0.06368,0.012597 -0.09582,0.017126 -0.462976,0.06646 -0.39584,0.5341361 0.06714,0.4676762 v 0 c 0.04258,-0.00617 0.08491,-0.01397 0.127037,-0.022683 0.09141,-0.019473 0.182824,-0.039481 0.272227,-0.066981 0.111895,-0.034902 0.222406,-0.074287 0.335703,-0.1046549 0.174623,-0.048879 0.350123,-0.094765 0.527407,-0.1330621 0.211971,-0.045156 0.424675,-0.089796 0.640578,-0.1115227 0.225787,-0.018211 0.451987,-0.023892 0.678497,-0.020653 0.467723,0 0.467723,-0.4724704 0,-0.4724704 z" />
          <path
             style="fill:#000000;stroke:none;stroke-width:0.277594"
             id="path649"
             d="m 34.528741,6.583189 c 0.157914,0.012282 0.315728,0.025556 0.473744,0.036725 0.193685,0.011599 0.387742,0.016306 0.581563,0.025683 0.163712,0.00554 0.325814,0.026141 0.487755,0.047165 0.141686,0.019727 0.284383,0.031966 0.427273,0.041529 0.126975,0.00842 0.254052,0.015028 0.380947,0.024418 0.0948,0.00859 0.189677,0.01628 0.28481,0.021034 0.514089,0.025511 0.542454,-0.4462563 0.02837,-0.4717672 v 0 c -0.09053,-0.00445 -0.180768,-0.012184 -0.270989,-0.02018 -0.12828,-0.00948 -0.256737,-0.016264 -0.385098,-0.024709 -0.131014,-0.00868 -0.261845,-0.019873 -0.391735,-0.038043 -0.177185,-0.023 -0.354626,-0.044923 -0.533711,-0.051251 -0.189596,-0.00915 -0.379403,-0.013957 -0.568885,-0.024929 -0.157957,-0.011139 -0.315697,-0.024514 -0.473554,-0.036711 -0.513293,-0.03641 -0.553779,0.4346263 -0.04049,0.4710362 z" />
          <path
             style="fill:#000000;stroke:none;stroke-width:0.264583"
             id="path651"
             d="m 30.638268,12.459087 c 0.185693,0.06395 0.3809,0.08659 0.575503,0.102861 0.2691,0.0208 0.538695,0.03066 0.80853,0.03359 0.329917,0.0024 0.658413,-0.033 0.98163,-0.09725 0.232328,-0.04874 0.445424,-0.147195 0.643578,-0.275284 0.08619,-0.05816 0.169093,-0.12099 0.251156,-0.184784 0.01709,-0.01192 0.01024,-0.007 -0.02148,0.01337 0.429868,-0.184328 0.24367,-0.61856 -0.186198,-0.434233 v 0 c -0.06894,0.03655 -0.04259,0.01884 -0.08233,0.04788 -0.07169,0.05576 -0.144042,0.110771 -0.21911,0.161941 -0.146981,0.09686 -0.305379,0.17066 -0.478562,0.207878 -0.290753,0.05898 -0.586782,0.08939 -0.883674,0.08804 -0.258548,-0.0027 -0.516853,-0.01221 -0.774705,-0.03201 -0.155972,-0.01265 -0.312883,-0.02851 -0.461947,-0.07921 -0.442727,-0.150854 -0.595111,0.296367 -0.152387,0.447221 z" />
          <path
             style="fill:#000000;stroke:none;stroke-width:0.264583"
             id="path657"
             d="m 28.915227,7.9462849 c 0.09349,-0.056401 0.196459,-0.089884 0.30279,-0.1114788 0.108161,-0.018177 0.217807,-0.027284 0.327011,-0.015409 0.07475,0.00985 0.141013,0.041377 0.202941,0.082629 0.06072,0.038135 0.09443,0.093009 0.122994,0.1566574 0.05008,0.1176139 0.07273,0.2437844 0.09237,0.3693369 0.01865,0.1381855 0.02766,0.2778519 0.0208,0.4171754 -0.0064,0.091184 -0.04112,0.1733159 -0.09201,0.2479821 -0.03497,0.05433 -0.08373,0.090863 -0.139409,0.1213802 -0.08311,0.041392 -0.174736,0.059942 -0.264991,0.07853 -0.108725,0.021847 -0.219413,0.02866 -0.32998,0.032559 -0.0921,5.027e-4 -0.184899,0.00852 -0.27632,-0.00551 -0.04552,-0.01198 -0.08609,-0.035161 -0.121444,-0.065805 -0.04211,-0.039983 -0.08336,-0.081626 -0.111379,-0.1328719 -0.02432,-0.054351 -0.03662,-0.1129803 -0.04673,-0.1713543 -0.0131,-0.086421 -0.01961,-0.173464 -0.02344,-0.2607172 -0.0026,-0.082679 0.008,-0.1646394 0.02508,-0.2453148 0.01508,-0.070137 0.04078,-0.1369787 0.06942,-0.2025002 0.01744,-0.04783 0.04431,-0.086488 0.07968,-0.1220533 0.03348,-0.030965 0.07057,-0.05749 0.11,-0.080267 0.02421,-0.011319 0.04749,-0.029324 0.07385,-0.035429 0.440114,-0.1583145 0.280192,-0.6028966 -0.159922,-0.4445818 v 0 c -0.05346,0.020151 -0.105338,0.044181 -0.154535,0.073393 -0.07637,0.045713 -0.148738,0.097917 -0.211698,0.1612204 -0.07179,0.076903 -0.132022,0.1612683 -0.170879,0.2598327 -0.04108,0.095379 -0.07736,0.1928625 -0.09862,0.2948242 -0.02416,0.1191493 -0.03917,0.2400303 -0.03438,0.3619021 0.0049,0.1081797 0.01331,0.2161519 0.0304,0.3231803 0.02101,0.1143762 0.04919,0.2281836 0.106391,0.3305636 0.0608,0.09846 0.134872,0.1866728 0.224028,0.2610405 0.104683,0.080031 0.219385,0.1417614 0.351166,0.1631887 0.118409,0.014848 0.237215,0.013806 0.356367,0.00942 0.137068,-0.00505 0.274196,-0.014576 0.408879,-0.042096 0.139613,-0.029121 0.279575,-0.062702 0.405562,-0.132147 C 30.10798,9.5531931 30.213384,9.4675374 30.288767,9.3498709 30.381957,9.2022014 30.446805,9.0422782 30.45615,8.8656876 30.46285,8.6947779 30.45455,8.5236073 30.42998,8.3542105 30.402688,8.1831446 30.368549,8.0120433 30.29645,7.8533182 30.226606,7.7133219 30.138253,7.5896059 30.003604,7.5046969 29.876797,7.4245837 29.740473,7.3656464 29.589809,7.3490549 29.432475,7.3352807 29.274952,7.3429457 29.119557,7.372706 28.964358,7.40676 28.81332,7.4559051 28.676446,7.5385844 28.272843,7.7749489 28.511608,8.1826496 28.915211,7.9462851 Z" />
          <path
             style="fill:#000000;stroke:none;stroke-width:0.264583"
             id="path657-6"
             d="m 34.881837,7.774157 c 0.09349,-0.056401 0.196459,-0.089884 0.30279,-0.1114788 0.108161,-0.018177 0.217807,-0.027284 0.327011,-0.015409 0.07475,0.00985 0.141013,0.041377 0.202941,0.082629 0.06072,0.038135 0.09443,0.093009 0.122994,0.1566574 0.05008,0.1176139 0.07273,0.2437844 0.09237,0.3693368 0.01865,0.1381855 0.02766,0.2778519 0.0208,0.4171754 -0.0064,0.091184 -0.04112,0.1733159 -0.09201,0.2479821 -0.03497,0.05433 -0.08373,0.090863 -0.139409,0.1213802 -0.08311,0.041393 -0.174736,0.059944 -0.264991,0.078531 -0.108725,0.02185 -0.219413,0.02866 -0.32998,0.03256 -0.0921,5.02e-4 -0.184899,0.0085 -0.27632,-0.0055 -0.04552,-0.01198 -0.08609,-0.03516 -0.121444,-0.06581 -0.04211,-0.039983 -0.08336,-0.081625 -0.111379,-0.1328719 -0.02432,-0.054351 -0.03662,-0.1129803 -0.04673,-0.1713543 -0.0131,-0.086421 -0.01961,-0.173464 -0.02344,-0.2607172 -0.0026,-0.082679 0.008,-0.1646394 0.02508,-0.2453148 0.01508,-0.070137 0.04078,-0.1369786 0.06942,-0.2025001 0.01744,-0.04783 0.04431,-0.086488 0.07968,-0.1220533 0.03348,-0.030965 0.07057,-0.05749 0.11,-0.080267 0.02421,-0.011319 0.04749,-0.029324 0.07385,-0.035429 0.440114,-0.1583145 0.280192,-0.6028966 -0.159922,-0.4445818 v 0 c -0.05346,0.020151 -0.105338,0.044181 -0.154535,0.073393 -0.07637,0.045713 -0.148738,0.097917 -0.211698,0.1612204 -0.07179,0.076903 -0.132022,0.1612683 -0.170879,0.2598327 -0.04108,0.095379 -0.07736,0.1928625 -0.09862,0.2948241 -0.02416,0.1191493 -0.03917,0.2400303 -0.03438,0.3619021 0.0049,0.1081797 0.01331,0.2161519 0.0304,0.3231803 0.02101,0.1143762 0.04919,0.2281828 0.106391,0.3305628 0.0608,0.09846 0.134872,0.186674 0.224028,0.261041 0.104683,0.08003 0.219385,0.141762 0.351166,0.163189 0.118409,0.01485 0.237215,0.01381 0.356367,0.0094 0.137068,-0.005 0.274196,-0.01458 0.408879,-0.0421 0.139613,-0.02912 0.279575,-0.0627 0.405562,-0.132147 0.118761,-0.07037 0.224165,-0.156028 0.299548,-0.273695 C 36.348567,9.0300565 36.413415,8.8701332 36.42276,8.6935426 36.42946,8.5226329 36.42116,8.3514623 36.39659,8.1820655 36.3693,8.0109997 36.33516,7.8398984 36.26306,7.6811733 36.19322,7.541177 36.104863,7.417461 35.970214,7.332552 35.843407,7.252439 35.707083,7.1935015 35.556419,7.17691 35.399085,7.163136 35.241562,7.1708 35.086167,7.200561 34.930968,7.234615 34.77993,7.28376 34.643056,7.3664394 34.239453,7.6028038 34.478218,8.0105046 34.881821,7.7741401 Z" />
          <path
             style="fill:#000000;stroke:none;stroke-width:0.459862"
             id="path694"
             d="m 29.301912,8.4962018 c 0.014,-0.00288 0.06196,-0.024321 0.07098,-0.00428 -0.0014,5.412e-4 -0.0034,3.883e-4 -0.0043,0.00162 -0.0028,0.00424 0.0066,0.027379 0.0069,0.029566 0.0037,0.019839 0.0028,0.01954 0.0028,0.039672 -4.68e-4,0.036764 -0.01471,0.06322 -0.04333,0.086208 -0.03114,0.021538 -0.06692,0.032999 -0.104689,0.037238 -0.0156,7.667e-4 -0.014,-0.0037 -0.01932,-0.012835 -0.0058,-0.012221 -0.0085,-0.024966 -0.01028,-0.038233 -0.0023,-0.019775 -0.0034,-0.038924 0.0028,-0.057941 0.0051,-0.017885 0.01701,-0.031465 0.02986,-0.044751 0.01311,-0.012647 0.0296,-0.020773 0.04652,-0.02759 0.02775,-0.00593 9.38e-4,5.863e-4 -0.01152,-0.00176 -0.01187,-0.00489 -0.01241,-0.00828 -0.01418,0.00535 -0.0034,0.00985 -0.0099,0.010551 -0.01787,0.016159 -0.01241,0.0076 -0.0255,0.015375 -0.04005,0.018332 0.04604,-0.013568 0.09593,0.014437 0.107968,0.057808 0.002,0.01968 -0.0037,0.037476 -0.02111,0.048094 -0.03621,0.011829 -0.07201,-0.00651 -0.0844,-0.040354 -0.0062,-0.02668 0.0302,-0.049694 0.05046,-0.056294 0.01613,-0.00527 0.03405,-0.00172 0.05104,-0.00261 0.04553,0.013414 0.06949,0.049609 0.06242,0.096641 -0.0014,0.00973 -0.008,0.018126 -0.01187,0.02719 0.126524,-0.1578509 -0.03929,-0.280767 -0.165799,-0.1229157 v 0 c -0.0082,0.014164 -0.01994,0.026873 -0.02419,0.042496 -0.01912,0.070319 0.0198,0.1257435 0.08512,0.1510193 0.02137,2.675e-4 0.04351,0.00612 0.06417,8.117e-4 0.06877,-0.017696 0.09349,-0.083092 0.09792,-0.1429894 -0.0014,-0.013312 -0.0014,-0.026946 -0.0046,-0.039924 -0.021,-0.079484 -0.09572,-0.1203062 -0.177407,-0.1067248 -0.07777,0.026938 -0.124096,0.069719 -0.130884,0.1527459 0.0099,0.088173 0.056,0.1474331 0.159702,0.1283258 0.04305,-0.012647 0.08349,-0.031934 0.118567,-0.059403 0.05437,-0.047197 0.08918,-0.1033499 0.09009,-0.1756631 -0.0046,-0.069022 -0.02627,-0.1305928 -0.08831,-0.1712656 -0.06194,-0.030797 -0.11527,-0.036024 -0.179977,-0.0092 -0.04388,0.019099 -0.08519,0.042996 -0.117982,0.07761 -0.03456,0.037846 -0.0632,0.079407 -0.07651,0.1287979 -0.01134,0.045847 -0.01471,0.091795 -0.0069,0.1385817 0.009,0.052819 0.02669,0.1027192 0.06334,0.1442047 0.05795,0.056882 0.119063,0.082675 0.203066,0.075548 0.0814,-0.012272 0.157451,-0.039321 0.220584,-0.092025 0.07536,-0.073995 0.104779,-0.1357897 0.106639,-0.2401444 -0.0069,-0.099931 -0.03624,-0.1920129 -0.131238,-0.2460104 -0.01489,-0.00535 -0.02912,-0.012221 -0.04445,-0.016073 -0.06246,-0.015681 -0.127074,-0.00298 -0.186406,0.017471 -0.19298,0.072645 -0.11667,0.2601256 0.0763,0.1874797 z" />
          <path
             style="fill:#000000;stroke:none;stroke-width:0.459862"
             id="path698"
             d="m 35.223255,8.3239667 c 0.014,-0.00288 0.06196,-0.024321 0.07098,-0.00428 -0.0014,5.412e-4 -0.0034,3.883e-4 -0.0043,0.00162 -0.0028,0.00424 0.0066,0.027379 0.0069,0.029566 0.0037,0.019839 0.0028,0.01954 0.0028,0.039672 -4.68e-4,0.036764 -0.01471,0.06322 -0.04333,0.086208 -0.03114,0.021538 -0.06692,0.032999 -0.104689,0.037238 -0.0156,7.667e-4 -0.014,-0.0037 -0.01932,-0.012835 -0.0058,-0.012221 -0.0085,-0.024966 -0.01028,-0.038233 -0.0023,-0.019775 -0.0034,-0.038924 0.0028,-0.057941 0.0051,-0.017885 0.01701,-0.031465 0.02986,-0.044751 0.01311,-0.012647 0.0296,-0.020773 0.04652,-0.02759 0.02775,-0.00593 9.38e-4,5.863e-4 -0.01152,-0.00176 -0.01187,-0.00489 -0.01241,-0.00828 -0.01418,0.00535 -0.0034,0.00985 -0.0099,0.010551 -0.01787,0.016159 -0.01241,0.0076 -0.0255,0.015375 -0.04005,0.018332 0.04604,-0.013568 0.09593,0.014437 0.107968,0.057808 0.002,0.01968 -0.0037,0.037476 -0.02111,0.048094 -0.03621,0.011829 -0.07201,-0.00651 -0.0844,-0.040354 -0.0062,-0.02668 0.0302,-0.049694 0.05046,-0.056294 0.01613,-0.00527 0.03405,-0.00172 0.05104,-0.00261 0.04553,0.013414 0.06949,0.049609 0.06242,0.096641 -0.0014,0.00973 -0.008,0.018126 -0.01187,0.02719 0.126524,-0.1578509 -0.03929,-0.280767 -0.165799,-0.1229157 v 0 c -0.0082,0.014164 -0.01994,0.026873 -0.02419,0.042496 -0.01912,0.070319 0.0198,0.1257435 0.08512,0.1510193 0.02137,2.675e-4 0.04351,0.00612 0.06417,8.117e-4 0.06877,-0.017696 0.09349,-0.083092 0.09792,-0.1429894 -0.0014,-0.013312 -0.0014,-0.026946 -0.0046,-0.039924 -0.021,-0.079484 -0.09572,-0.1203062 -0.177407,-0.1067248 -0.07777,0.026938 -0.124096,0.069719 -0.130884,0.1527459 0.0099,0.088173 0.056,0.1474331 0.159702,0.1283258 0.04305,-0.012647 0.08349,-0.031934 0.118567,-0.059403 0.05437,-0.047197 0.08918,-0.1033499 0.09009,-0.1756631 -0.0046,-0.069022 -0.02627,-0.1305928 -0.08831,-0.1712656 -0.06194,-0.030797 -0.11527,-0.036024 -0.179977,-0.0092 -0.04388,0.019099 -0.08519,0.042996 -0.117982,0.07761 -0.03456,0.037846 -0.0632,0.079407 -0.07651,0.1287979 -0.01134,0.045847 -0.01471,0.091795 -0.0069,0.1385817 0.009,0.052819 0.02669,0.1027192 0.06334,0.1442047 0.05795,0.056882 0.119063,0.082675 0.203066,0.075548 0.0814,-0.012272 0.157451,-0.039321 0.220584,-0.092025 0.07536,-0.073995 0.104779,-0.1357897 0.106639,-0.2401444 -0.0069,-0.099931 -0.03624,-0.1920129 -0.131238,-0.2460104 -0.01489,-0.00535 -0.02912,-0.012221 -0.04445,-0.016073 -0.06246,-0.015681 -0.127074,-0.00298 -0.186406,0.017471 -0.19298,0.072645 -0.11667,0.2601256 0.0763,0.1874797 z" />
        </g>
      </g>
    </g>
    <rect
       style="fill:none;stroke:#000000;stroke-width:0.264583"
       id="rect755"
       width="64"
       height="64"
       x="64.396873"
       y="0.1322915" />
    <rect
       style="fill:none;stroke:#000000;stroke-width:0.264583"
       id="rect757"
       width="64"
       height="64"
       x="128.66145"
       y="0.1322915" />
    <g
       id="g799"
       transform="matrix(0.95200277,0,0,0.95200277,19.427914,16.438527)">
      <g
         id="g797">
        <path
           style="fill:#aa0000;stroke:none;stroke-width:0.264583"
           id="path759-6"
           d="m 79.4381,2.7202215 c 0.02774,0.540099 0.06456,1.079713 0.10136,1.619261 0.04464,0.644875 0.11114,1.287909 0.168478,1.93171 0.05849,0.587584 0.07944,1.177569 0.091,1.767617 0.01413,0.601611 -0.0046,1.203133 -0.0199,1.80449 -0.01879,0.8187665 -0.02664,1.6377885 -0.02265,2.4567525 0.0086,0.885796 0.02862,1.771405 0.04467,2.657084 0.01352,0.771992 0.01916,1.54409 0.02193,2.316184 0.0069,0.569236 -0.0059,1.138284 -0.02903,1.707005 -0.02397,0.425564 -0.05009,0.850939 -0.07199,1.276631 -0.01564,0.395426 -0.03497,0.790701 -0.05078,1.186116 -0.01035,0.267821 -0.01421,0.535827 -0.01603,0.803823 -5.28e-4,0.1026 -8.06e-4,0.205204 -2.65e-4,0.307807 -1.43e-4,0.02931 8.06e-4,0.05859 0.0016,0.08788 0.134649,3.30455 3.472732,3.168531 3.338092,-0.136019 v 0 c 2.6e-4,0.0124 0.001,0.0495 0.001,0.03712 -2.7e-4,-0.09141 -1e-4,-0.182821 2.6e-4,-0.27423 0.002,-0.231151 0.005,-0.462313 0.0135,-0.69332 0.0152,-0.382622 0.0342,-0.765094 0.049,-1.147732 0.0225,-0.437893 0.05,-0.875421 0.0737,-1.313242 0.0248,-0.617666 0.0389,-1.235689 0.0317,-1.853903 -0.003,-0.788265 -0.009,-1.576526 -0.0225,-2.364685 -0.0158,-0.871146 -0.0354,-1.742226 -0.0442,-2.613492 -0.004,-0.785021 0.004,-1.570103 0.0216,-2.3549415 0.0166,-0.651737 0.0357,-1.303655 0.0203,-1.955654 -0.0134,-0.666901 -0.0382,-1.333696 -0.10353,-1.997855 -0.0554,-0.620782 -0.11944,-1.240833 -0.16307,-1.86261 -0.0352,-0.515867 -0.0704,-1.031799 -0.0973,-1.548176 -0.1548,-3.30366697 -3.491991,-3.14729297 -3.337191,0.156375 z" />
        <path
           style="fill:#aa0000;stroke:none;stroke-width:0.264583"
           id="path761-5"
           d="m 79.448137,23.373299 c -0.101345,0.661641 -0.250384,1.314533 -0.401922,1.96609 -0.276276,1.114616 -0.516641,2.237446 -0.755378,3.360562 -0.205115,0.99036 -0.417627,1.979077 -0.642203,2.965202 -0.169925,0.694364 -0.323495,1.392318 -0.470949,2.091735 -0.07938,0.392626 -0.164572,0.784029 -0.249271,1.175523 -0.04583,0.205264 -0.08502,0.41164 -0.114201,0.61992 -0.01607,0.114938 -0.03346,0.229685 -0.05075,0.344444 -0.04675,0.294225 -0.0094,0.591408 0.0067,0.886343 0.03152,0.596791 0.03656,1.19438 0.0395,1.791845 0.0062,0.799467 0.0074,1.598965 0.0097,2.398452 -3.8e-5,0.791494 -0.01629,1.583093 -0.06185,2.373319 -0.02996,0.509229 -0.08659,1.016228 -0.125285,1.524752 -0.03583,0.487856 -0.0484,0.976578 -0.05027,1.465565 -3.72e-4,0.247081 -0.01148,0.493824 -0.02486,0.740463 -0.0057,0.06301 -0.02315,0.691624 -0.0046,0.248562 0.02288,-0.158057 -0.0022,-0.003 -0.0084,0.03461 -0.0031,0.01814 -0.0058,0.03636 -0.0085,0.05458 -0.459531,3.275212 2.848932,3.739408 3.308462,0.464198 v 0 c -0.0013,0.0077 -0.0045,0.03027 -0.0033,0.02273 0.01112,-0.06727 0.02308,-0.134396 0.03155,-0.202083 0.0091,-0.147492 0.01625,-0.294294 0.02064,-0.441919 0.01641,-0.302581 0.02902,-0.605355 0.02974,-0.908455 0.0015,-0.4097 0.01082,-0.819149 0.04091,-1.227944 0.03908,-0.528544 0.100598,-1.05529 0.129242,-1.58469 0.04846,-0.856745 0.06807,-1.714835 0.06727,-2.572943 -0.0022,-0.801954 -0.0035,-1.603919 -0.0097,-2.405852 -0.0033,-0.653727 -0.0097,-1.307578 -0.0446,-1.960538 -0.004,-0.0704 -0.0076,-0.140807 -0.01189,-0.21118 -0.0026,-0.04407 -0.0057,-0.08811 -0.0089,-0.132134 -0.0011,-0.01446 0.0043,-0.05547 -0.0036,-0.04337 -0.0094,0.01439 -1.92e-4,0.03446 -0.0018,0.05162 -0.0047,0.05335 -0.01172,0.106457 -0.01683,0.159761 -8.19e-4,0.0093 0.0028,-0.01849 0.0042,-0.02776 0.01927,-0.127878 0.0386,-0.255753 0.05645,-0.383838 0.017,-0.125227 0.04347,-0.248871 0.07039,-0.372543 0.08578,-0.397102 0.172404,-0.794038 0.252848,-1.19227 0.143746,-0.681853 0.293673,-1.36221 0.459413,-2.039122 0.228114,-1.001833 0.444242,-2.006254 0.652592,-3.012391 0.23434,-1.102529 0.47019,-2.20478 0.74166,-3.298892 0.17375,-0.748164 0.34284,-1.498264 0.45627,-2.258406 0.4593,-3.275253 -2.849212,-3.739201 -3.308495,-0.463951 z"
           inkscape:transform-center-x="1.6593373"
           inkscape:transform-center-y="12.36876" />
        <path
           style="fill:#aa0000;stroke:none;stroke-width:0.225817"
           id="path763-6"
           d="m 82.853775,22.948393 c 0.0995,0.562548 0.23954,1.116697 0.38168,1.669656 0.25769,0.945606 0.48491,1.898928 0.71074,2.852529 0.19453,0.840985 0.39534,1.680426 0.60639,2.517416 0.15867,0.58912 0.30346,1.181626 0.44305,1.775501 0.0755,0.33345 0.15587,0.665734 0.23585,0.99811 0.0431,0.174241 0.0807,0.349555 0.10964,0.526701 0.016,0.09775 0.0331,0.195321 0.0501,0.292898 0.0457,0.250129 0.0197,0.504435 0.0117,0.756407 -0.0152,0.509837 -0.008,1.019829 0.002,1.529679 0.0104,0.682269 0.0252,1.364467 0.039,2.046679 0.0156,0.675342 0.0451,1.35046 0.0995,2.023826 0.0356,0.433913 0.0939,0.865398 0.13698,1.298527 0.0401,0.415563 0.0607,0.832305 0.0718,1.24951 0.005,0.210817 0.0196,0.42113 0.0358,0.631315 0.006,0.05368 0.0334,0.589675 0.009,0.212023 -0.0226,-0.134412 0.002,-0.0026 0.008,0.0294 0.003,0.01543 0.006,0.0309 0.009,0.04638 0.45663,2.785532 -2.35719,3.246799 -2.81381,0.461265 v 0 c 8.5e-4,0.0065 0.004,0.02574 0.003,0.01931 -0.0103,-0.05723 -0.0223,-0.11422 -0.0309,-0.171806 -0.0104,-0.125689 -0.0196,-0.250788 -0.026,-0.376682 -0.02,-0.257857 -0.0367,-0.515952 -0.0432,-0.77456 -0.009,-0.34955 -0.0254,-0.698728 -0.0592,-1.046939 -0.0437,-0.450216 -0.10665,-0.898446 -0.14146,-1.349601 -0.058,-0.730076 -0.0919,-1.461845 -0.10809,-2.194045 -0.0139,-0.684314 -0.0287,-1.368622 -0.0392,-2.052995 -0.0101,-0.557859 -0.0175,-1.11589 -5.7e-4,-1.673717 0.003,-0.06016 0.003,-0.120294 0.006,-0.180425 0.002,-0.03766 0.003,-0.07529 0.005,-0.112919 7.7e-4,-0.01238 -0.004,-0.04727 0.003,-0.03708 0.009,0.01207 5.2e-4,0.02942 0.003,0.04401 0.005,0.04542 0.012,0.09061 0.0172,0.136009 8.5e-4,0.0079 -0.003,-0.01571 -0.004,-0.02359 -0.0189,-0.108736 -0.038,-0.21746 -0.0557,-0.326403 -0.017,-0.106513 -0.042,-0.211491 -0.0673,-0.316488 -0.081,-0.337141 -0.16271,-0.674124 -0.23919,-1.012334 -0.13608,-0.578963 -0.27741,-1.156526 -0.43217,-1.730836 -0.21438,-0.850326 -0.41858,-1.703097 -0.616184,-2.557479 -0.221668,-0.936121 -0.444624,-1.871975 -0.69782,-2.800184 -0.162992,-0.63495 -0.322049,-1.271642 -0.433817,-1.918001 -0.456427,-2.785567 2.357421,-3.246619 2.813851,-0.461051 z"
           inkscape:transform-center-x="-1.7177736"
           inkscape:transform-center-y="10.592996" />
        <g
           id="g769-9"
           transform="matrix(1.0303403,0.06710289,-0.06710289,1.0303403,48.77168,-16.509271)"
           inkscape:transform-center-x="2.9496266"
           inkscape:transform-center-y="7.4551527">
          <path
             style="fill:#aa0000;stroke:none;stroke-width:0.264583"
             id="path765-3"
             d="m 30.806339,15.954051 c -0.447185,0.593845 -0.839213,1.226733 -1.226746,1.860362 -0.338952,0.575324 -0.670237,1.155219 -1.000262,1.73572 -0.288801,0.517806 -0.567084,1.041474 -0.834472,1.570639 -0.248875,0.5129 -0.509545,1.020096 -0.737815,1.542587 -0.03528,0.08934 -0.07057,0.178671 -0.105851,0.268006 -1.20464,3.080101 1.906733,4.296972 3.111373,1.216871 v 0 c 0.02093,-0.05439 0.04185,-0.108779 0.06278,-0.163168 0.194505,-0.463505 0.440094,-0.904168 0.652354,-1.359618 0.241694,-0.480114 0.495212,-0.95426 0.756007,-1.424263 0.31252,-0.549801 0.626573,-1.098819 0.946409,-1.644385 0.319106,-0.522387 0.640855,-1.044572 1.003086,-1.538538 2.043467,-2.600465 -0.583399,-4.664679 -2.626866,-2.064213 z" />
          <path
             style="fill:#aa0000;stroke:none;stroke-width:0.264583"
             id="path767-7"
             d="m 26.636728,24.036824 c -0.162724,0.537685 -0.285955,1.084988 -0.387215,1.637175 -0.126624,0.716028 -0.176539,1.4414 -0.219963,2.166155 -0.02212,0.473056 -0.05458,0.945454 -0.08886,1.417746 -0.03139,0.306874 -0.04387,0.61532 -0.07108,0.922493 -0.0082,0.07606 -0.01433,0.152869 -0.03263,0.227137 -0.02288,0.09514 -0.03836,0.191736 -0.05333,0.288351 -0.485119,3.27152 2.819615,3.761563 3.304734,0.490045 v 0 c 0.0013,-0.01736 -0.01095,0.04171 0.0011,-0.01505 0.05381,-0.232609 0.09083,-0.468895 0.108961,-0.707068 0.0267,-0.321206 0.04344,-0.643204 0.07436,-0.964096 0.03529,-0.486318 0.06876,-0.972751 0.09165,-1.459849 0.03543,-0.592019 0.07132,-1.184939 0.172424,-1.770297 0.07813,-0.438711 0.178472,-0.872352 0.307621,-1.299094 0.924258,-3.17552 -2.283503,-4.109161 -3.207761,-0.933642 z" />
        </g>
        <g
           id="g775-4"
           transform="matrix(0.87340901,-0.15232817,0.15232817,0.87340901,50.158348,-7.0656703)"
           inkscape:transform-center-x="-3.5224462"
           inkscape:transform-center-y="5.7901843">
          <path
             style="fill:#aa0000;stroke:none;stroke-width:0.264583"
             id="path771-5"
             d="m 31.546781,18.239979 c 0.283951,0.341851 0.578601,0.674575 0.866085,1.013429 0.30217,0.34616 0.564993,0.722744 0.826378,1.099748 0.24819,0.360377 0.49339,0.723023 0.725678,1.093898 0.212082,0.343247 0.390284,0.705809 0.564549,1.06925 0.170821,0.367794 0.331367,0.740225 0.497922,1.109954 0.123391,0.272339 0.24664,0.544908 0.392758,0.805937 0.0016,0.0033 0.0032,0.0066 0.0048,0.0099 1.579557,2.905714 4.514773,1.31012 2.935216,-1.595594 v 0 c -0.01437,-0.02611 -0.02873,-0.05221 -0.0431,-0.07832 -0.06797,-0.11234 -0.169023,-0.362891 -0.243787,-0.514379 -0.17772,-0.394287 -0.348308,-0.791794 -0.532064,-1.183341 -0.229232,-0.476992 -0.466809,-0.951037 -0.747302,-1.400441 -0.260096,-0.413137 -0.531564,-0.819003 -0.809273,-1.220504 -0.323316,-0.466226 -0.652389,-0.928995 -1.024774,-1.358007 -0.280326,-0.330116 -0.56702,-0.65478 -0.844288,-0.987489 -2.114536,-2.543012 -4.683368,-0.407007 -2.568831,2.136005 z" />
          <path
             style="fill:#aa0000;stroke:none;stroke-width:0.264583"
             id="path773-2"
             d="m 35.531123,24.980143 c 0.136845,0.266423 0.227729,0.552539 0.307552,0.840203 0.09509,0.343888 0.155302,0.695383 0.212098,1.047131 0.05551,0.3073 0.0817,0.61817 0.110897,0.928687 0.02117,0.241877 0.03451,0.484383 0.0497,0.726699 0.01156,0.183161 0.01561,0.36666 0.01778,0.550133 0.0013,0.168084 -4.5e-5,0.336134 0.0042,0.504177 0.0028,0.114315 0.02101,0.227298 0.02643,0.341352 0.0065,0.101623 0.01879,0.202623 0.03133,0.303606 0.423323,3.280088 3.736713,2.852468 3.31339,-0.427619 v 0 c -0.0029,-0.01924 -0.01212,-0.121624 -0.0085,-0.05209 -0.0024,-0.04324 -0.0016,-0.262961 -0.02297,-0.287562 -0.0032,-0.0037 -2.64e-4,0.0097 -5.29e-4,0.0145 -0.0021,-0.14555 -7.93e-4,-0.291383 -0.0026,-0.437036 -0.003,-0.239784 -0.0089,-0.479579 -0.0241,-0.718942 -0.01744,-0.276775 -0.03271,-0.55377 -0.0578,-0.829979 -0.03616,-0.384456 -0.07214,-0.769014 -0.139137,-1.149664 -0.07782,-0.47991 -0.164989,-0.958651 -0.296608,-1.427271 -0.153596,-0.532462 -0.333084,-1.059378 -0.599795,-1.54742 -1.604806,-2.891846 -4.52601,-1.270746 -2.921204,1.6211 z" />
        </g>
        <g
           id="g795-5"
           transform="translate(48.717222,-13.885183)">
          <circle
             style="fill:#aa0000;stroke:none;stroke-width:0.28798"
             id="circle777-4"
             cx="32.13229"
             cy="-8.4666662"
             transform="scale(1,-1)"
             r="8.4666662" />
          <path
             style="fill:#800000;stroke:none;stroke-width:0.0526658"
             d="m 24.736874,4.1060286 c 0.3177,-1.6508282 0.775889,-1.4882731 1.464216,-2.1655835 1.417264,-1.39458182 3.720088,-3.8845311 6.71998,-4.1101097 1.198225,-0.090101 1.813408,-0.1637727 2.664934,-0.3191406 0.956111,-0.1744497 1.836036,0.00899 2.54329,0.2609287 1.013956,0.3611989 1.433281,0.5536568 1.552271,1.0435148 0.09676,0.39834422 0.764364,1.3401875 0.423425,3.3363096 -0.02457,0.1438786 -0.0027,3.7349006 -1.418085,2.8994658 -0.38573,-0.22768 -0.990859,-2.6582344 -2.453723,-2.9336578 -2.048984,-0.3857752 -2.31178,-0.4163883 -3.536265,-0.4119388 -1.661041,0.00603 -2.349218,0.1706713 -4.483066,1.0725009 -0.561628,0.2373616 -1.22288,0.5131252 -1.469449,0.6128075 -0.246569,0.099683 -0.762122,0.3893341 -1.145673,0.6436696 -0.700469,0.464486 -0.895357,0.586306 -0.937975,0.586306 -0.01265,0 0.0216,-0.2317825 0.07612,-0.5150725 z"
             id="path779-7"
             sodipodi:nodetypes="csssssssssssssc" />
          <path
             style="fill:#000000;stroke:none;stroke-width:0.264583"
             id="path781-4"
             d="m 29.751657,6.2238032 c -0.239045,-0.00361 -0.477731,0.00336 -0.716031,0.022146 -0.236458,0.022728 -0.469389,0.071011 -0.701432,0.120387 -0.187002,0.040327 -0.372128,0.088665 -0.55632,0.1401779 -0.117764,0.031246 -0.232458,0.072455 -0.348734,0.1085024 -0.07563,0.023006 -0.152985,0.039583 -0.230251,0.056011 -0.0318,0.00642 -0.06368,0.012597 -0.09582,0.017126 -0.462976,0.06646 -0.39584,0.5341361 0.06714,0.4676762 v 0 c 0.04258,-0.00617 0.08491,-0.01397 0.127037,-0.022683 0.09141,-0.019473 0.182824,-0.039481 0.272227,-0.066981 0.111895,-0.034902 0.222406,-0.074287 0.335703,-0.1046549 0.174623,-0.048879 0.350123,-0.094765 0.527407,-0.1330621 0.211971,-0.045156 0.424675,-0.089796 0.640578,-0.1115227 0.225787,-0.018211 0.451987,-0.023892 0.678497,-0.020653 0.467723,0 0.467723,-0.4724704 0,-0.4724704 z" />
          <path
             style="fill:#000000;stroke:none;stroke-width:0.277594"
             id="path783-4"
             d="m 34.528741,6.583189 c 0.157914,0.012282 0.315728,0.025556 0.473744,0.036725 0.193685,0.011599 0.387742,0.016306 0.581563,0.025683 0.163712,0.00554 0.325814,0.026141 0.487755,0.047165 0.141686,0.019727 0.284383,0.031966 0.427273,0.041529 0.126975,0.00842 0.254052,0.015028 0.380947,0.024418 0.0948,0.00859 0.189677,0.01628 0.28481,0.021034 0.514089,0.025511 0.542454,-0.4462563 0.02837,-0.4717672 v 0 c -0.09053,-0.00445 -0.180768,-0.012184 -0.270989,-0.02018 -0.12828,-0.00948 -0.256737,-0.016264 -0.385098,-0.024709 -0.131014,-0.00868 -0.261845,-0.019873 -0.391735,-0.038043 -0.177185,-0.023 -0.354626,-0.044923 -0.533711,-0.051251 -0.189596,-0.00915 -0.379403,-0.013957 -0.568885,-0.024929 -0.157957,-0.011139 -0.315697,-0.024514 -0.473554,-0.036711 -0.513293,-0.03641 -0.553779,0.4346263 -0.04049,0.4710362 z" />
          <path
             style="fill:#000000;stroke:none;stroke-width:0.264583"
             id="path785-3"
             d="m 30.638268,12.459087 c 0.185693,0.06395 0.3809,0.08659 0.575503,0.102861 0.2691,0.0208 0.538695,0.03066 0.80853,0.03359 0.329917,0.0024 0.658413,-0.033 0.98163,-0.09725 0.232328,-0.04874 0.445424,-0.147195 0.643578,-0.275284 0.08619,-0.05816 0.169093,-0.12099 0.251156,-0.184784 0.01709,-0.01192 0.01024,-0.007 -0.02148,0.01337 0.429868,-0.184328 0.24367,-0.61856 -0.186198,-0.434233 v 0 c -0.06894,0.03655 -0.04259,0.01884 -0.08233,0.04788 -0.07169,0.05576 -0.144042,0.110771 -0.21911,0.161941 -0.146981,0.09686 -0.305379,0.17066 -0.478562,0.207878 -0.290753,0.05898 -0.586782,0.08939 -0.883674,0.08804 -0.258548,-0.0027 -0.516853,-0.01221 -0.774705,-0.03201 -0.155972,-0.01265 -0.312883,-0.02851 -0.461947,-0.07921 -0.442727,-0.150854 -0.595111,0.296367 -0.152387,0.447221 z" />
          <path
             style="fill:#000000;stroke:none;stroke-width:0.264583"
             id="path787-0"
             d="m 28.915227,7.9462849 c 0.09349,-0.056401 0.196459,-0.089884 0.30279,-0.1114788 0.108161,-0.018177 0.217807,-0.027284 0.327011,-0.015409 0.07475,0.00985 0.141013,0.041377 0.202941,0.082629 0.06072,0.038135 0.09443,0.093009 0.122994,0.1566574 0.05008,0.1176139 0.07273,0.2437844 0.09237,0.3693369 0.01865,0.1381855 0.02766,0.2778519 0.0208,0.4171754 -0.0064,0.091184 -0.04112,0.1733159 -0.09201,0.2479821 -0.03497,0.05433 -0.08373,0.090863 -0.139409,0.1213802 -0.08311,0.041392 -0.174736,0.059942 -0.264991,0.07853 -0.108725,0.021847 -0.219413,0.02866 -0.32998,0.032559 -0.0921,5.027e-4 -0.184899,0.00852 -0.27632,-0.00551 -0.04552,-0.01198 -0.08609,-0.035161 -0.121444,-0.065805 -0.04211,-0.039983 -0.08336,-0.081626 -0.111379,-0.1328719 -0.02432,-0.054351 -0.03662,-0.1129803 -0.04673,-0.1713543 -0.0131,-0.086421 -0.01961,-0.173464 -0.02344,-0.2607172 -0.0026,-0.082679 0.008,-0.1646394 0.02508,-0.2453148 0.01508,-0.070137 0.04078,-0.1369787 0.06942,-0.2025002 0.01744,-0.04783 0.04431,-0.086488 0.07968,-0.1220533 0.03348,-0.030965 0.07057,-0.05749 0.11,-0.080267 0.02421,-0.011319 0.04749,-0.029324 0.07385,-0.035429 0.440114,-0.1583145 0.280192,-0.6028966 -0.159922,-0.4445818 v 0 c -0.05346,0.020151 -0.105338,0.044181 -0.154535,0.073393 -0.07637,0.045713 -0.148738,0.097917 -0.211698,0.1612204 -0.07179,0.076903 -0.132022,0.1612683 -0.170879,0.2598327 -0.04108,0.095379 -0.07736,0.1928625 -0.09862,0.2948242 -0.02416,0.1191493 -0.03917,0.2400303 -0.03438,0.3619021 0.0049,0.1081797 0.01331,0.2161519 0.0304,0.3231803 0.02101,0.1143762 0.04919,0.2281836 0.106391,0.3305636 0.0608,0.09846 0.134872,0.1866728 0.224028,0.2610405 0.104683,0.080031 0.219385,0.1417614 0.351166,0.1631887 0.118409,0.014848 0.237215,0.013806 0.356367,0.00942 0.137068,-0.00505 0.274196,-0.014576 0.408879,-0.042096 0.139613,-0.029121 0.279575,-0.062702 0.405562,-0.132147 C 30.10798,9.5531931 30.213384,9.4675374 30.288767,9.3498709 30.381957,9.2022014 30.446805,9.0422782 30.45615,8.8656876 30.46285,8.6947779 30.45455,8.5236073 30.42998,8.3542105 30.402688,8.1831446 30.368549,8.0120433 30.29645,7.8533182 30.226606,7.7133219 30.138253,7.5896059 30.003604,7.5046969 29.876797,7.4245837 29.740473,7.3656464 29.589809,7.3490549 29.432475,7.3352807 29.274952,7.3429457 29.119557,7.372706 28.964358,7.40676 28.81332,7.4559051 28.676446,7.5385844 28.272843,7.7749489 28.511608,8.1826496 28.915211,7.9462851 Z" />
          <path
             style="fill:#000000;stroke:none;stroke-width:0.264583"
             id="path789-7"
             d="m 34.881837,7.774157 c 0.09349,-0.056401 0.196459,-0.089884 0.30279,-0.1114788 0.108161,-0.018177 0.217807,-0.027284 0.327011,-0.015409 0.07475,0.00985 0.141013,0.041377 0.202941,0.082629 0.06072,0.038135 0.09443,0.093009 0.122994,0.1566574 0.05008,0.1176139 0.07273,0.2437844 0.09237,0.3693368 0.01865,0.1381855 0.02766,0.2778519 0.0208,0.4171754 -0.0064,0.091184 -0.04112,0.1733159 -0.09201,0.2479821 -0.03497,0.05433 -0.08373,0.090863 -0.139409,0.1213802 -0.08311,0.041393 -0.174736,0.059944 -0.264991,0.078531 -0.108725,0.02185 -0.219413,0.02866 -0.32998,0.03256 -0.0921,5.02e-4 -0.184899,0.0085 -0.27632,-0.0055 -0.04552,-0.01198 -0.08609,-0.03516 -0.121444,-0.06581 -0.04211,-0.039983 -0.08336,-0.081625 -0.111379,-0.1328719 -0.02432,-0.054351 -0.03662,-0.1129803 -0.04673,-0.1713543 -0.0131,-0.086421 -0.01961,-0.173464 -0.02344,-0.2607172 -0.0026,-0.082679 0.008,-0.1646394 0.02508,-0.2453148 0.01508,-0.070137 0.04078,-0.1369786 0.06942,-0.2025001 0.01744,-0.04783 0.04431,-0.086488 0.07968,-0.1220533 0.03348,-0.030965 0.07057,-0.05749 0.11,-0.080267 0.02421,-0.011319 0.04749,-0.029324 0.07385,-0.035429 0.440114,-0.1583145 0.280192,-0.6028966 -0.159922,-0.4445818 v 0 c -0.05346,0.020151 -0.105338,0.044181 -0.154535,0.073393 -0.07637,0.045713 -0.148738,0.097917 -0.211698,0.1612204 -0.07179,0.076903 -0.132022,0.1612683 -0.170879,0.2598327 -0.04108,0.095379 -0.07736,0.1928625 -0.09862,0.2948241 -0.02416,0.1191493 -0.03917,0.2400303 -0.03438,0.3619021 0.0049,0.1081797 0.01331,0.2161519 0.0304,0.3231803 0.02101,0.1143762 0.04919,0.2281828 0.106391,0.3305628 0.0608,0.09846 0.134872,0.186674 0.224028,0.261041 0.104683,0.08003 0.219385,0.141762 0.351166,0.163189 0.118409,0.01485 0.237215,0.01381 0.356367,0.0094 0.137068,-0.005 0.274196,-0.01458 0.408879,-0.0421 0.139613,-0.02912 0.279575,-0.0627 0.405562,-0.132147 0.118761,-0.07037 0.224165,-0.156028 0.299548,-0.273695 C 36.348567,9.0300565 36.413415,8.8701332 36.42276,8.6935426 36.42946,8.5226329 36.42116,8.3514623 36.39659,8.1820655 36.3693,8.0109997 36.33516,7.8398984 36.26306,7.6811733 36.19322,7.541177 36.104863,7.417461 35.970214,7.332552 35.843407,7.252439 35.707083,7.1935015 35.556419,7.17691 35.399085,7.163136 35.241562,7.1708 35.086167,7.200561 34.930968,7.234615 34.77993,7.28376 34.643056,7.3664394 34.239453,7.6028038 34.478218,8.0105046 34.881821,7.7741401 Z" />
          <path
             style="fill:#000000;stroke:none;stroke-width:0.459862"
             id="path791-8"
             d="m 29.301912,8.4962018 c 0.014,-0.00288 0.06196,-0.024321 0.07098,-0.00428 -0.0014,5.412e-4 -0.0034,3.883e-4 -0.0043,0.00162 -0.0028,0.00424 0.0066,0.027379 0.0069,0.029566 0.0037,0.019839 0.0028,0.01954 0.0028,0.039672 -4.68e-4,0.036764 -0.01471,0.06322 -0.04333,0.086208 -0.03114,0.021538 -0.06692,0.032999 -0.104689,0.037238 -0.0156,7.667e-4 -0.014,-0.0037 -0.01932,-0.012835 -0.0058,-0.012221 -0.0085,-0.024966 -0.01028,-0.038233 -0.0023,-0.019775 -0.0034,-0.038924 0.0028,-0.057941 0.0051,-0.017885 0.01701,-0.031465 0.02986,-0.044751 0.01311,-0.012647 0.0296,-0.020773 0.04652,-0.02759 0.02775,-0.00593 9.38e-4,5.863e-4 -0.01152,-0.00176 -0.01187,-0.00489 -0.01241,-0.00828 -0.01418,0.00535 -0.0034,0.00985 -0.0099,0.010551 -0.01787,0.016159 -0.01241,0.0076 -0.0255,0.015375 -0.04005,0.018332 0.04604,-0.013568 0.09593,0.014437 0.107968,0.057808 0.002,0.01968 -0.0037,0.037476 -0.02111,0.048094 -0.03621,0.011829 -0.07201,-0.00651 -0.0844,-0.040354 -0.0062,-0.02668 0.0302,-0.049694 0.05046,-0.056294 0.01613,-0.00527 0.03405,-0.00172 0.05104,-0.00261 0.04553,0.013414 0.06949,0.049609 0.06242,0.096641 -0.0014,0.00973 -0.008,0.018126 -0.01187,0.02719 0.126524,-0.1578509 -0.03929,-0.280767 -0.165799,-0.1229157 v 0 c -0.0082,0.014164 -0.01994,0.026873 -0.02419,0.042496 -0.01912,0.070319 0.0198,0.1257435 0.08512,0.1510193 0.02137,2.675e-4 0.04351,0.00612 0.06417,8.117e-4 0.06877,-0.017696 0.09349,-0.083092 0.09792,-0.1429894 -0.0014,-0.013312 -0.0014,-0.026946 -0.0046,-0.039924 -0.021,-0.079484 -0.09572,-0.1203062 -0.177407,-0.1067248 -0.07777,0.026938 -0.124096,0.069719 -0.130884,0.1527459 0.0099,0.088173 0.056,0.1474331 0.159702,0.1283258 0.04305,-0.012647 0.08349,-0.031934 0.118567,-0.059403 0.05437,-0.047197 0.08918,-0.1033499 0.09009,-0.1756631 -0.0046,-0.069022 -0.02627,-0.1305928 -0.08831,-0.1712656 -0.06194,-0.030797 -0.11527,-0.036024 -0.179977,-0.0092 -0.04388,0.019099 -0.08519,0.042996 -0.117982,0.07761 -0.03456,0.037846 -0.0632,0.079407 -0.07651,0.1287979 -0.01134,0.045847 -0.01471,0.091795 -0.0069,0.1385817 0.009,0.052819 0.02669,0.1027192 0.06334,0.1442047 0.05795,0.056882 0.119063,0.082675 0.203066,0.075548 0.0814,-0.012272 0.157451,-0.039321 0.220584,-0.092025 0.07536,-0.073995 0.104779,-0.1357897 0.106639,-0.2401444 -0.0069,-0.099931 -0.03624,-0.1920129 -0.131238,-0.2460104 -0.01489,-0.00535 -0.02912,-0.012221 -0.04445,-0.016073 -0.06246,-0.015681 -0.127074,-0.00298 -0.186406,0.017471 -0.19298,0.072645 -0.11667,0.2601256 0.0763,0.1874797 z" />
          <path
             style="fill:#000000;stroke:none;stroke-width:0.459862"
             id="path793-6"
             d="m 35.223255,8.3239667 c 0.014,-0.00288 0.06196,-0.024321 0.07098,-0.00428 -0.0014,5.412e-4 -0.0034,3.883e-4 -0.0043,0.00162 -0.0028,0.00424 0.0066,0.027379 0.0069,0.029566 0.0037,0.019839 0.0028,0.01954 0.0028,0.039672 -4.68e-4,0.036764 -0.01471,0.06322 -0.04333,0.086208 -0.03114,0.021538 -0.06692,0.032999 -0.104689,0.037238 -0.0156,7.667e-4 -0.014,-0.0037 -0.01932,-0.012835 -0.0058,-0.012221 -0.0085,-0.024966 -0.01028,-0.038233 -0.0023,-0.019775 -0.0034,-0.038924 0.0028,-0.057941 0.0051,-0.017885 0.01701,-0.031465 0.02986,-0.044751 0.01311,-0.012647 0.0296,-0.020773 0.04652,-0.02759 0.02775,-0.00593 9.38e-4,5.863e-4 -0.01152,-0.00176 -0.01187,-0.00489 -0.01241,-0.00828 -0.01418,0.00535 -0.0034,0.00985 -0.0099,0.010551 -0.01787,0.016159 -0.01241,0.0076 -0.0255,0.015375 -0.04005,0.018332 0.04604,-0.013568 0.09593,0.014437 0.107968,0.057808 0.002,0.01968 -0.0037,0.037476 -0.02111,0.048094 -0.03621,0.011829 -0.07201,-0.00651 -0.0844,-0.040354 -0.0062,-0.02668 0.0302,-0.049694 0.05046,-0.056294 0.01613,-0.00527 0.03405,-0.00172 0.05104,-0.00261 0.04553,0.013414 0.06949,0.049609 0.06242,0.096641 -0.0014,0.00973 -0.008,0.018126 -0.01187,0.02719 0.126524,-0.1578509 -0.03929,-0.280767 -0.165799,-0.1229157 v 0 c -0.0082,0.014164 -0.01994,0.026873 -0.02419,0.042496 -0.01912,0.070319 0.0198,0.1257435 0.08512,0.1510193 0.02137,2.675e-4 0.04351,0.00612 0.06417,8.117e-4 0.06877,-0.017696 0.09349,-0.083092 0.09792,-0.1429894 -0.0014,-0.013312 -0.0014,-0.026946 -0.0046,-0.039924 -0.021,-0.079484 -0.09572,-0.1203062 -0.177407,-0.1067248 -0.07777,0.026938 -0.124096,0.069719 -0.130884,0.1527459 0.0099,0.088173 0.056,0.1474331 0.159702,0.1283258 0.04305,-0.012647 0.08349,-0.031934 0.118567,-0.059403 0.05437,-0.047197 0.08918,-0.1033499 0.09009,-0.1756631 -0.0046,-0.069022 -0.02627,-0.1305928 -0.08831,-0.1712656 -0.06194,-0.030797 -0.11527,-0.036024 -0.179977,-0.0092 -0.04388,0.019099 -0.08519,0.042996 -0.117982,0.07761 -0.03456,0.037846 -0.0632,0.079407 -0.07651,0.1287979 -0.01134,0.045847 -0.01471,0.091795 -0.0069,0.1385817 0.009,0.052819 0.02669,0.1027192 0.06334,0.1442047 0.05795,0.056882 0.119063,0.082675 0.203066,0.075548 0.0814,-0.012272 0.157451,-0.039321 0.220584,-0.092025 0.07536,-0.073995 0.104779,-0.1357897 0.106639,-0.2401444 -0.0069,-0.099931 -0.03624,-0.1920129 -0.131238,-0.2460104 -0.01489,-0.00535 -0.02912,-0.012221 -0.04445,-0.016073 -0.06246,-0.015681 -0.127074,-0.00298 -0.186406,0.017471 -0.19298,0.072645 -0.11667,0.2601256 0.0763,0.1874797 z" />
        </g>
        <path
           style="fill:#aa0000;stroke:none;stroke-width:0.264583"
           id="path759-6-4"
           d="m 146.94272,2.7202216 c 0.0277,0.5400989 0.0646,1.0797131 0.10136,1.6192608 0.0446,0.644875 0.11114,1.287909 0.16847,1.9317101 0.0585,0.587584 0.0794,1.1775689 0.091,1.7676169 0.0141,0.601611 -0.005,1.2031331 -0.0199,1.8044901 -0.0188,0.8187665 -0.0266,1.6377895 -0.0226,2.4567535 0.009,0.885796 0.0286,1.771405 0.0447,2.657084 0.0135,0.771992 0.0192,1.54409 0.0219,2.316184 0.007,0.569236 -0.006,1.138283 -0.029,1.707005 -0.024,0.425564 -0.0501,0.850939 -0.072,1.276631 -0.0156,0.395426 -0.035,0.790701 -0.0508,1.186116 -0.0103,0.26782 -0.0142,0.535827 -0.016,0.803823 -5.2e-4,0.1026 -8e-4,0.205204 -2.6e-4,0.307807 -1.4e-4,0.02931 8.1e-4,0.05859 0.002,0.08788 0.13465,3.30455 3.47273,3.168531 3.33809,-0.136019 v 0 c 2.6e-4,0.0124 10e-4,0.0495 10e-4,0.03712 -2.7e-4,-0.09141 -10e-5,-0.182821 2.6e-4,-0.274229 0.002,-0.231152 0.005,-0.462314 0.0135,-0.693321 0.0152,-0.382622 0.0342,-0.765094 0.049,-1.147732 0.0225,-0.437893 0.05,-0.875421 0.0737,-1.313244 0.0248,-0.617664 0.0389,-1.235687 0.0317,-1.853901 -0.003,-0.788265 -0.009,-1.576526 -0.0225,-2.364685 -0.0158,-0.871146 -0.0354,-1.742226 -0.0442,-2.613492 -0.004,-0.785021 0.004,-1.570104 0.0216,-2.3549424 0.0166,-0.6517371 0.0357,-1.3036549 0.0203,-1.9556542 -0.0134,-0.6669009 -0.0382,-1.3336959 -0.10354,-1.9978549 -0.0554,-0.6207821 -0.11944,-1.240833 -0.16307,-1.8626101 -0.0352,-0.5158668 -0.0704,-1.0317989 -0.0973,-1.5481759 -0.1548,-3.30366687 -3.49199,-3.14729287 -3.33719,0.1563749 z" />
        <path
           style="fill:#aa0000;stroke:none;stroke-width:0.264583"
           id="path761-5-8"
           d="m 150.68611,23.3733 c 0.10134,0.66164 0.25038,1.314531 0.40192,1.96609 0.27627,1.114616 0.51664,2.237446 0.75538,3.36056 0.20511,0.990362 0.41762,1.979078 0.6422,2.965204 0.16992,0.694362 0.32349,1.392318 0.47095,2.091733 0.0794,0.392628 0.16457,0.784029 0.24927,1.175525 0.0458,0.205263 0.085,0.41164 0.1142,0.619918 0.0161,0.114938 0.0335,0.229687 0.0507,0.344444 0.0468,0.294226 0.009,0.591409 -0.007,0.886343 -0.0315,0.596792 -0.0366,1.194382 -0.0395,1.791847 -0.006,0.799467 -0.007,1.598965 -0.01,2.398452 4e-5,0.791493 0.0163,1.583093 0.0619,2.373319 0.03,0.509227 0.0866,1.016228 0.12529,1.524752 0.0358,0.487854 0.0484,0.976576 0.0503,1.465565 3.6e-4,0.247082 0.0115,0.493824 0.0249,0.740461 0.006,0.06301 0.0232,0.691625 0.005,0.248563 -0.0229,-0.158057 0.002,-0.003 0.008,0.03461 0.003,0.01815 0.006,0.03636 0.008,0.05458 0.45953,3.27521 -2.84894,3.739408 -3.30847,0.464198 v 0 c 0.001,0.0077 0.005,0.03027 0.003,0.02273 -0.0111,-0.06727 -0.0231,-0.134395 -0.0315,-0.202083 -0.009,-0.147491 -0.0163,-0.294292 -0.0206,-0.441919 -0.0164,-0.302581 -0.029,-0.605355 -0.0297,-0.908455 -0.001,-0.4097 -0.0108,-0.819147 -0.0409,-1.227944 -0.0391,-0.528543 -0.10059,-1.05529 -0.12924,-1.584688 -0.0485,-0.856745 -0.0681,-1.714837 -0.0673,-2.572944 0.002,-0.801954 0.004,-1.60392 0.01,-2.405853 0.003,-0.653727 0.01,-1.307577 0.0446,-1.960537 0.004,-0.0704 0.008,-0.140807 0.0119,-0.21118 0.003,-0.04407 0.006,-0.08811 0.009,-0.132135 0.001,-0.01445 -0.004,-0.05547 0.004,-0.04337 0.009,0.0144 2e-4,0.03446 0.002,0.05162 0.005,0.05335 0.0117,0.106456 0.0168,0.159761 8.1e-4,0.0093 -0.003,-0.01848 -0.004,-0.02776 -0.0193,-0.127878 -0.0386,-0.255753 -0.0565,-0.383837 -0.017,-0.125226 -0.0435,-0.248871 -0.0704,-0.372544 -0.0858,-0.397102 -0.1724,-0.794037 -0.25284,-1.19227 -0.14375,-0.681853 -0.29368,-1.362208 -0.45942,-2.03912 -0.22811,-1.001834 -0.44424,-2.006255 -0.65259,-3.012392 -0.23434,-1.102528 -0.47019,-2.204781 -0.74166,-3.298891 -0.17375,-0.748166 -0.34284,-1.498266 -0.45627,-2.258407 -0.4593,-3.275254 2.84921,-3.739202 3.3085,-0.463951 z"
           inkscape:transform-center-x="-1.659338"
           inkscape:transform-center-y="12.36876" />
        <path
           style="fill:#aa0000;stroke:none;stroke-width:0.225817"
           id="path763-6-7"
           d="m 147.28047,22.948392 c -0.0995,0.562549 -0.23954,1.116697 -0.38168,1.669658 -0.25769,0.945605 -0.48491,1.898927 -0.71074,2.852528 -0.19453,0.840986 -0.39534,1.680427 -0.60639,2.517417 -0.15867,0.589119 -0.30346,1.181625 -0.44305,1.775499 -0.0755,0.333452 -0.15587,0.665736 -0.23585,0.99811 -0.0431,0.174241 -0.0807,0.349557 -0.10964,0.526703 -0.016,0.09775 -0.0331,0.195321 -0.0501,0.292897 -0.0457,0.250131 -0.0197,0.504436 -0.0117,0.756406 0.0152,0.509838 0.008,1.01983 -0.002,1.529679 -0.0104,0.68227 -0.0252,1.364468 -0.039,2.04668 -0.0156,0.675341 -0.0451,1.35046 -0.0995,2.023826 -0.0356,0.433912 -0.0939,0.865398 -0.13698,1.298527 -0.0401,0.415565 -0.0607,0.832304 -0.0718,1.249511 -0.005,0.210816 -0.0196,0.421128 -0.0358,0.631313 -0.006,0.05368 -0.0334,0.589677 -0.009,0.212024 0.0226,-0.134411 -0.002,-0.0025 -0.008,0.0294 -0.003,0.01543 -0.006,0.0309 -0.009,0.04638 -0.45663,2.785532 2.35719,3.2468 2.81381,0.461266 v 0 c -8.6e-4,0.0065 -0.004,0.02573 -0.003,0.01931 0.0103,-0.05723 0.0223,-0.11422 0.0309,-0.171806 0.0104,-0.125688 0.0196,-0.250786 0.026,-0.37668 0.02,-0.25786 0.0367,-0.515953 0.0432,-0.77456 0.009,-0.349552 0.0254,-0.698729 0.0592,-1.046941 0.0437,-0.450215 0.10665,-0.898444 0.14146,-1.349602 0.058,-0.730075 0.0919,-1.461843 0.10809,-2.194042 0.0139,-0.684316 0.0287,-1.368623 0.0392,-2.052997 0.0101,-0.557858 0.0175,-1.115888 5.8e-4,-1.673715 -0.003,-0.06016 -0.003,-0.120296 -0.006,-0.180425 -0.002,-0.03766 -0.003,-0.07529 -0.005,-0.11292 -7.8e-4,-0.01237 0.004,-0.04727 -0.003,-0.03708 -0.009,0.01206 -5.3e-4,0.02942 -0.003,0.04401 -0.005,0.04542 -0.012,0.09061 -0.0172,0.136009 -8.6e-4,0.0079 0.003,-0.0157 0.004,-0.0236 0.0189,-0.108735 0.038,-0.217461 0.0557,-0.326404 0.017,-0.106511 0.042,-0.211491 0.0673,-0.316487 0.081,-0.33714 0.16271,-0.674125 0.23919,-1.012334 0.13608,-0.578964 0.27741,-1.156526 0.43217,-1.730835 0.21438,-0.850327 0.41858,-1.703097 0.61619,-2.557479 0.22166,-0.936122 0.44462,-1.871974 0.69782,-2.800184 0.16299,-0.634951 0.32204,-1.271642 0.43381,-1.918001 0.45643,-2.785568 -2.35742,-3.24662 -2.81385,-0.461052 z"
           inkscape:transform-center-x="1.7177729"
           inkscape:transform-center-y="10.592996" />
        <g
           id="g769-9-1"
           transform="matrix(-1.0303403,0.06710289,0.06710289,1.0303403,181.36256,-16.509271)"
           inkscape:transform-center-x="-2.9496273"
           inkscape:transform-center-y="7.4551527">
          <path
             style="fill:#aa0000;stroke:none;stroke-width:0.264583"
             id="path765-3-7"
             d="m 30.806339,15.954051 c -0.447185,0.593845 -0.839213,1.226733 -1.226746,1.860362 -0.338952,0.575324 -0.670237,1.155219 -1.000262,1.73572 -0.288801,0.517806 -0.567084,1.041474 -0.834472,1.570639 -0.248875,0.5129 -0.509545,1.020096 -0.737815,1.542587 -0.03528,0.08934 -0.07057,0.178671 -0.105851,0.268006 -1.20464,3.080101 1.906733,4.296972 3.111373,1.216871 v 0 c 0.02093,-0.05439 0.04185,-0.108779 0.06278,-0.163168 0.194505,-0.463505 0.440094,-0.904168 0.652354,-1.359618 0.241694,-0.480114 0.495212,-0.95426 0.756007,-1.424263 0.31252,-0.549801 0.626573,-1.098819 0.946409,-1.644385 0.319106,-0.522387 0.640855,-1.044572 1.003086,-1.538538 2.043467,-2.600465 -0.583399,-4.664679 -2.626866,-2.064213 z" />
          <path
             style="fill:#aa0000;stroke:none;stroke-width:0.264583"
             id="path767-7-2"
             d="m 26.636728,24.036824 c -0.162724,0.537685 -0.285955,1.084988 -0.387215,1.637175 -0.126624,0.716028 -0.176539,1.4414 -0.219963,2.166155 -0.02212,0.473056 -0.05458,0.945454 -0.08886,1.417746 -0.03139,0.306874 -0.04387,0.61532 -0.07108,0.922493 -0.0082,0.07606 -0.01433,0.152869 -0.03263,0.227137 -0.02288,0.09514 -0.03836,0.191736 -0.05333,0.288351 -0.485119,3.27152 2.819615,3.761563 3.304734,0.490045 v 0 c 0.0013,-0.01736 -0.01095,0.04171 0.0011,-0.01505 0.05381,-0.232609 0.09083,-0.468895 0.108961,-0.707068 0.0267,-0.321206 0.04344,-0.643204 0.07436,-0.964096 0.03529,-0.486318 0.06876,-0.972751 0.09165,-1.459849 0.03543,-0.592019 0.07132,-1.184939 0.172424,-1.770297 0.07813,-0.438711 0.178472,-0.872352 0.307621,-1.299094 0.924258,-3.17552 -2.283503,-4.109161 -3.207761,-0.933642 z" />
        </g>
        <g
           id="g775-4-7"
           transform="matrix(-0.873409,-0.15232817,-0.15232817,0.873409,179.97589,-7.0656704)"
           inkscape:transform-center-x="3.5224455"
           inkscape:transform-center-y="5.7901843">
          <path
             style="fill:#aa0000;stroke:none;stroke-width:0.264583"
             id="path771-5-2"
             d="m 31.546781,18.239979 c 0.283951,0.341851 0.578601,0.674575 0.866085,1.013429 0.30217,0.34616 0.564993,0.722744 0.826378,1.099748 0.24819,0.360377 0.49339,0.723023 0.725678,1.093898 0.212082,0.343247 0.390284,0.705809 0.564549,1.06925 0.170821,0.367794 0.331367,0.740225 0.497922,1.109954 0.123391,0.272339 0.24664,0.544908 0.392758,0.805937 0.0016,0.0033 0.0032,0.0066 0.0048,0.0099 1.579557,2.905714 4.514773,1.31012 2.935216,-1.595594 v 0 c -0.01437,-0.02611 -0.02873,-0.05221 -0.0431,-0.07832 -0.06797,-0.11234 -0.169023,-0.362891 -0.243787,-0.514379 -0.17772,-0.394287 -0.348308,-0.791794 -0.532064,-1.183341 -0.229232,-0.476992 -0.466809,-0.951037 -0.747302,-1.400441 -0.260096,-0.413137 -0.531564,-0.819003 -0.809273,-1.220504 -0.323316,-0.466226 -0.652389,-0.928995 -1.024774,-1.358007 -0.280326,-0.330116 -0.56702,-0.65478 -0.844288,-0.987489 -2.114536,-2.543012 -4.683368,-0.407007 -2.568831,2.136005 z" />
          <path
             style="fill:#aa0000;stroke:none;stroke-width:0.264583"
             id="path773-2-2"
             d="m 35.531123,24.980143 c 0.136845,0.266423 0.227729,0.552539 0.307552,0.840203 0.09509,0.343888 0.155302,0.695383 0.212098,1.047131 0.05551,0.3073 0.0817,0.61817 0.110897,0.928687 0.02117,0.241877 0.03451,0.484383 0.0497,0.726699 0.01156,0.183161 0.01561,0.36666 0.01778,0.550133 0.0013,0.168084 -4.5e-5,0.336134 0.0042,0.504177 0.0028,0.114315 0.02101,0.227298 0.02643,0.341352 0.0065,0.101623 0.01879,0.202623 0.03133,0.303606 0.423323,3.280088 3.736713,2.852468 3.31339,-0.427619 v 0 c -0.0029,-0.01924 -0.01212,-0.121624 -0.0085,-0.05209 -0.0024,-0.04324 -0.0016,-0.262961 -0.02297,-0.287562 -0.0032,-0.0037 -2.64e-4,0.0097 -5.29e-4,0.0145 -0.0021,-0.14555 -7.93e-4,-0.291383 -0.0026,-0.437036 -0.003,-0.239784 -0.0089,-0.479579 -0.0241,-0.718942 -0.01744,-0.276775 -0.03271,-0.55377 -0.0578,-0.829979 -0.03616,-0.384456 -0.07214,-0.769014 -0.139137,-1.149664 -0.07782,-0.47991 -0.164989,-0.958651 -0.296608,-1.427271 -0.153596,-0.532462 -0.333084,-1.059378 -0.599795,-1.54742 -1.604806,-2.891846 -4.52601,-1.270746 -2.921204,1.6211 z" />
        </g>
        <g
           id="g795-5-6"
           transform="translate(116.22184,-13.885183)">
          <circle
             style="fill:#aa0000;stroke:none;stroke-width:0.28798"
             id="circle777-4-1"
             cx="32.13229"
             cy="-8.4666662"
             transform="scale(1,-1)"
             r="8.4666662" />
          <path
             style="fill:#800000;stroke:none;stroke-width:0.0526658"
             d="m 24.736874,4.1060286 c 0.3177,-1.6508282 0.775889,-1.4882731 1.464216,-2.1655835 1.417264,-1.39458182 3.720088,-3.8845311 6.71998,-4.1101097 1.198225,-0.090101 1.813408,-0.1637727 2.664934,-0.3191406 0.956111,-0.1744497 1.836036,0.00899 2.54329,0.2609287 1.013956,0.3611989 1.433281,0.5536568 1.552271,1.0435148 0.09676,0.39834422 0.764364,1.3401875 0.423425,3.3363096 -0.02457,0.1438786 -0.0027,3.7349006 -1.418085,2.8994658 -0.38573,-0.22768 -0.990859,-2.6582344 -2.453723,-2.9336578 -2.048984,-0.3857752 -2.31178,-0.4163883 -3.536265,-0.4119388 -1.661041,0.00603 -2.349218,0.1706713 -4.483066,1.0725009 -0.561628,0.2373616 -1.22288,0.5131252 -1.469449,0.6128075 -0.246569,0.099683 -0.762122,0.3893341 -1.145673,0.6436696 -0.700469,0.464486 -0.895357,0.586306 -0.937975,0.586306 -0.01265,0 0.0216,-0.2317825 0.07612,-0.5150725 z"
             id="path779-7-0"
             sodipodi:nodetypes="csssssssssssssc" />
          <path
             style="fill:#000000;stroke:none;stroke-width:0.264583"
             id="path781-4-6"
             d="m 29.751657,6.2238032 c -0.239045,-0.00361 -0.477731,0.00336 -0.716031,0.022146 -0.236458,0.022728 -0.469389,0.071011 -0.701432,0.120387 -0.187002,0.040327 -0.372128,0.088665 -0.55632,0.1401779 -0.117764,0.031246 -0.232458,0.072455 -0.348734,0.1085024 -0.07563,0.023006 -0.152985,0.039583 -0.230251,0.056011 -0.0318,0.00642 -0.06368,0.012597 -0.09582,0.017126 -0.462976,0.06646 -0.39584,0.5341361 0.06714,0.4676762 v 0 c 0.04258,-0.00617 0.08491,-0.01397 0.127037,-0.022683 0.09141,-0.019473 0.182824,-0.039481 0.272227,-0.066981 0.111895,-0.034902 0.222406,-0.074287 0.335703,-0.1046549 0.174623,-0.048879 0.350123,-0.094765 0.527407,-0.1330621 0.211971,-0.045156 0.424675,-0.089796 0.640578,-0.1115227 0.225787,-0.018211 0.451987,-0.023892 0.678497,-0.020653 0.467723,0 0.467723,-0.4724704 0,-0.4724704 z" />
          <path
             style="fill:#000000;stroke:none;stroke-width:0.277594"
             id="path783-4-1"
             d="m 34.528741,6.583189 c 0.157914,0.012282 0.315728,0.025556 0.473744,0.036725 0.193685,0.011599 0.387742,0.016306 0.581563,0.025683 0.163712,0.00554 0.325814,0.026141 0.487755,0.047165 0.141686,0.019727 0.284383,0.031966 0.427273,0.041529 0.126975,0.00842 0.254052,0.015028 0.380947,0.024418 0.0948,0.00859 0.189677,0.01628 0.28481,0.021034 0.514089,0.025511 0.542454,-0.4462563 0.02837,-0.4717672 v 0 c -0.09053,-0.00445 -0.180768,-0.012184 -0.270989,-0.02018 -0.12828,-0.00948 -0.256737,-0.016264 -0.385098,-0.024709 -0.131014,-0.00868 -0.261845,-0.019873 -0.391735,-0.038043 -0.177185,-0.023 -0.354626,-0.044923 -0.533711,-0.051251 -0.189596,-0.00915 -0.379403,-0.013957 -0.568885,-0.024929 -0.157957,-0.011139 -0.315697,-0.024514 -0.473554,-0.036711 -0.513293,-0.03641 -0.553779,0.4346263 -0.04049,0.4710362 z" />
          <path
             style="fill:#000000;stroke:none;stroke-width:0.264583"
             id="path785-3-5"
             d="m 30.638268,12.459087 c 0.185693,0.06395 0.3809,0.08659 0.575503,0.102861 0.2691,0.0208 0.538695,0.03066 0.80853,0.03359 0.329917,0.0024 0.658413,-0.033 0.98163,-0.09725 0.232328,-0.04874 0.445424,-0.147195 0.643578,-0.275284 0.08619,-0.05816 0.169093,-0.12099 0.251156,-0.184784 0.01709,-0.01192 0.01024,-0.007 -0.02148,0.01337 0.429868,-0.184328 0.24367,-0.61856 -0.186198,-0.434233 v 0 c -0.06894,0.03655 -0.04259,0.01884 -0.08233,0.04788 -0.07169,0.05576 -0.144042,0.110771 -0.21911,0.161941 -0.146981,0.09686 -0.305379,0.17066 -0.478562,0.207878 -0.290753,0.05898 -0.586782,0.08939 -0.883674,0.08804 -0.258548,-0.0027 -0.516853,-0.01221 -0.774705,-0.03201 -0.155972,-0.01265 -0.312883,-0.02851 -0.461947,-0.07921 -0.442727,-0.150854 -0.595111,0.296367 -0.152387,0.447221 z" />
          <path
             style="fill:#000000;stroke:none;stroke-width:0.264583"
             id="path787-0-9"
             d="m 28.915227,7.9462849 c 0.09349,-0.056401 0.196459,-0.089884 0.30279,-0.1114788 0.108161,-0.018177 0.217807,-0.027284 0.327011,-0.015409 0.07475,0.00985 0.141013,0.041377 0.202941,0.082629 0.06072,0.038135 0.09443,0.093009 0.122994,0.1566574 0.05008,0.1176139 0.07273,0.2437844 0.09237,0.3693369 0.01865,0.1381855 0.02766,0.2778519 0.0208,0.4171754 -0.0064,0.091184 -0.04112,0.1733159 -0.09201,0.2479821 -0.03497,0.05433 -0.08373,0.090863 -0.139409,0.1213802 -0.08311,0.041392 -0.174736,0.059942 -0.264991,0.07853 -0.108725,0.021847 -0.219413,0.02866 -0.32998,0.032559 -0.0921,5.027e-4 -0.184899,0.00852 -0.27632,-0.00551 -0.04552,-0.01198 -0.08609,-0.035161 -0.121444,-0.065805 -0.04211,-0.039983 -0.08336,-0.081626 -0.111379,-0.1328719 -0.02432,-0.054351 -0.03662,-0.1129803 -0.04673,-0.1713543 -0.0131,-0.086421 -0.01961,-0.173464 -0.02344,-0.2607172 -0.0026,-0.082679 0.008,-0.1646394 0.02508,-0.2453148 0.01508,-0.070137 0.04078,-0.1369787 0.06942,-0.2025002 0.01744,-0.04783 0.04431,-0.086488 0.07968,-0.1220533 0.03348,-0.030965 0.07057,-0.05749 0.11,-0.080267 0.02421,-0.011319 0.04749,-0.029324 0.07385,-0.035429 0.440114,-0.1583145 0.280192,-0.6028966 -0.159922,-0.4445818 v 0 c -0.05346,0.020151 -0.105338,0.044181 -0.154535,0.073393 -0.07637,0.045713 -0.148738,0.097917 -0.211698,0.1612204 -0.07179,0.076903 -0.132022,0.1612683 -0.170879,0.2598327 -0.04108,0.095379 -0.07736,0.1928625 -0.09862,0.2948242 -0.02416,0.1191493 -0.03917,0.2400303 -0.03438,0.3619021 0.0049,0.1081797 0.01331,0.2161519 0.0304,0.3231803 0.02101,0.1143762 0.04919,0.2281836 0.106391,0.3305636 0.0608,0.09846 0.134872,0.1866728 0.224028,0.2610405 0.104683,0.080031 0.219385,0.1417614 0.351166,0.1631887 0.118409,0.014848 0.237215,0.013806 0.356367,0.00942 0.137068,-0.00505 0.274196,-0.014576 0.408879,-0.042096 0.139613,-0.029121 0.279575,-0.062702 0.405562,-0.132147 C 30.10798,9.5531931 30.213384,9.4675374 30.288767,9.3498709 30.381957,9.2022014 30.446805,9.0422782 30.45615,8.8656876 30.46285,8.6947779 30.45455,8.5236073 30.42998,8.3542105 30.402688,8.1831446 30.368549,8.0120433 30.29645,7.8533182 30.226606,7.7133219 30.138253,7.5896059 30.003604,7.5046969 29.876797,7.4245837 29.740473,7.3656464 29.589809,7.3490549 29.432475,7.3352807 29.274952,7.3429457 29.119557,7.372706 28.964358,7.40676 28.81332,7.4559051 28.676446,7.5385844 28.272843,7.7749489 28.511608,8.1826496 28.915211,7.9462851 Z" />
          <path
             style="fill:#000000;stroke:none;stroke-width:0.264583"
             id="path789-7-4"
             d="m 34.881837,7.774157 c 0.09349,-0.056401 0.196459,-0.089884 0.30279,-0.1114788 0.108161,-0.018177 0.217807,-0.027284 0.327011,-0.015409 0.07475,0.00985 0.141013,0.041377 0.202941,0.082629 0.06072,0.038135 0.09443,0.093009 0.122994,0.1566574 0.05008,0.1176139 0.07273,0.2437844 0.09237,0.3693368 0.01865,0.1381855 0.02766,0.2778519 0.0208,0.4171754 -0.0064,0.091184 -0.04112,0.1733159 -0.09201,0.2479821 -0.03497,0.05433 -0.08373,0.090863 -0.139409,0.1213802 -0.08311,0.041393 -0.174736,0.059944 -0.264991,0.078531 -0.108725,0.02185 -0.219413,0.02866 -0.32998,0.03256 -0.0921,5.02e-4 -0.184899,0.0085 -0.27632,-0.0055 -0.04552,-0.01198 -0.08609,-0.03516 -0.121444,-0.06581 -0.04211,-0.039983 -0.08336,-0.081625 -0.111379,-0.1328719 -0.02432,-0.054351 -0.03662,-0.1129803 -0.04673,-0.1713543 -0.0131,-0.086421 -0.01961,-0.173464 -0.02344,-0.2607172 -0.0026,-0.082679 0.008,-0.1646394 0.02508,-0.2453148 0.01508,-0.070137 0.04078,-0.1369786 0.06942,-0.2025001 0.01744,-0.04783 0.04431,-0.086488 0.07968,-0.1220533 0.03348,-0.030965 0.07057,-0.05749 0.11,-0.080267 0.02421,-0.011319 0.04749,-0.029324 0.07385,-0.035429 0.440114,-0.1583145 0.280192,-0.6028966 -0.159922,-0.4445818 v 0 c -0.05346,0.020151 -0.105338,0.044181 -0.154535,0.073393 -0.07637,0.045713 -0.148738,0.097917 -0.211698,0.1612204 -0.07179,0.076903 -0.132022,0.1612683 -0.170879,0.2598327 -0.04108,0.095379 -0.07736,0.1928625 -0.09862,0.2948241 -0.02416,0.1191493 -0.03917,0.2400303 -0.03438,0.3619021 0.0049,0.1081797 0.01331,0.2161519 0.0304,0.3231803 0.02101,0.1143762 0.04919,0.2281828 0.106391,0.3305628 0.0608,0.09846 0.134872,0.186674 0.224028,0.261041 0.104683,0.08003 0.219385,0.141762 0.351166,0.163189 0.118409,0.01485 0.237215,0.01381 0.356367,0.0094 0.137068,-0.005 0.274196,-0.01458 0.408879,-0.0421 0.139613,-0.02912 0.279575,-0.0627 0.405562,-0.132147 0.118761,-0.07037 0.224165,-0.156028 0.299548,-0.273695 C 36.348567,9.0300565 36.413415,8.8701332 36.42276,8.6935426 36.42946,8.5226329 36.42116,8.3514623 36.39659,8.1820655 36.3693,8.0109997 36.33516,7.8398984 36.26306,7.6811733 36.19322,7.541177 36.104863,7.417461 35.970214,7.332552 35.843407,7.252439 35.707083,7.1935015 35.556419,7.17691 35.399085,7.163136 35.241562,7.1708 35.086167,7.200561 34.930968,7.234615 34.77993,7.28376 34.643056,7.3664394 34.239453,7.6028038 34.478218,8.0105046 34.881821,7.7741401 Z" />
          <path
             style="fill:#000000;stroke:none;stroke-width:0.459862"
             id="path791-8-9"
             d="m 29.301912,8.4962018 c 0.014,-0.00288 0.06196,-0.024321 0.07098,-0.00428 -0.0014,5.412e-4 -0.0034,3.883e-4 -0.0043,0.00162 -0.0028,0.00424 0.0066,0.027379 0.0069,0.029566 0.0037,0.019839 0.0028,0.01954 0.0028,0.039672 -4.68e-4,0.036764 -0.01471,0.06322 -0.04333,0.086208 -0.03114,0.021538 -0.06692,0.032999 -0.104689,0.037238 -0.0156,7.667e-4 -0.014,-0.0037 -0.01932,-0.012835 -0.0058,-0.012221 -0.0085,-0.024966 -0.01028,-0.038233 -0.0023,-0.019775 -0.0034,-0.038924 0.0028,-0.057941 0.0051,-0.017885 0.01701,-0.031465 0.02986,-0.044751 0.01311,-0.012647 0.0296,-0.020773 0.04652,-0.02759 0.02775,-0.00593 9.38e-4,5.863e-4 -0.01152,-0.00176 -0.01187,-0.00489 -0.01241,-0.00828 -0.01418,0.00535 -0.0034,0.00985 -0.0099,0.010551 -0.01787,0.016159 -0.01241,0.0076 -0.0255,0.015375 -0.04005,0.018332 0.04604,-0.013568 0.09593,0.014437 0.107968,0.057808 0.002,0.01968 -0.0037,0.037476 -0.02111,0.048094 -0.03621,0.011829 -0.07201,-0.00651 -0.0844,-0.040354 -0.0062,-0.02668 0.0302,-0.049694 0.05046,-0.056294 0.01613,-0.00527 0.03405,-0.00172 0.05104,-0.00261 0.04553,0.013414 0.06949,0.049609 0.06242,0.096641 -0.0014,0.00973 -0.008,0.018126 -0.01187,0.02719 0.126524,-0.1578509 -0.03929,-0.280767 -0.165799,-0.1229157 v 0 c -0.0082,0.014164 -0.01994,0.026873 -0.02419,0.042496 -0.01912,0.070319 0.0198,0.1257435 0.08512,0.1510193 0.02137,2.675e-4 0.04351,0.00612 0.06417,8.117e-4 0.06877,-0.017696 0.09349,-0.083092 0.09792,-0.1429894 -0.0014,-0.013312 -0.0014,-0.026946 -0.0046,-0.039924 -0.021,-0.079484 -0.09572,-0.1203062 -0.177407,-0.1067248 -0.07777,0.026938 -0.124096,0.069719 -0.130884,0.1527459 0.0099,0.088173 0.056,0.1474331 0.159702,0.1283258 0.04305,-0.012647 0.08349,-0.031934 0.118567,-0.059403 0.05437,-0.047197 0.08918,-0.1033499 0.09009,-0.1756631 -0.0046,-0.069022 -0.02627,-0.1305928 -0.08831,-0.1712656 -0.06194,-0.030797 -0.11527,-0.036024 -0.179977,-0.0092 -0.04388,0.019099 -0.08519,0.042996 -0.117982,0.07761 -0.03456,0.037846 -0.0632,0.079407 -0.07651,0.1287979 -0.01134,0.045847 -0.01471,0.091795 -0.0069,0.1385817 0.009,0.052819 0.02669,0.1027192 0.06334,0.1442047 0.05795,0.056882 0.119063,0.082675 0.203066,0.075548 0.0814,-0.012272 0.157451,-0.039321 0.220584,-0.092025 0.07536,-0.073995 0.104779,-0.1357897 0.106639,-0.2401444 -0.0069,-0.099931 -0.03624,-0.1920129 -0.131238,-0.2460104 -0.01489,-0.00535 -0.02912,-0.012221 -0.04445,-0.016073 -0.06246,-0.015681 -0.127074,-0.00298 -0.186406,0.017471 -0.19298,0.072645 -0.11667,0.2601256 0.0763,0.1874797 z" />
          <path
             style="fill:#000000;stroke:none;stroke-width:0.459862"
             id="path793-6-0"
             d="m 35.223255,8.3239667 c 0.014,-0.00288 0.06196,-0.024321 0.07098,-0.00428 -0.0014,5.412e-4 -0.0034,3.883e-4 -0.0043,0.00162 -0.0028,0.00424 0.0066,0.027379 0.0069,0.029566 0.0037,0.019839 0.0028,0.01954 0.0028,0.039672 -4.68e-4,0.036764 -0.01471,0.06322 -0.04333,0.086208 -0.03114,0.021538 -0.06692,0.032999 -0.104689,0.037238 -0.0156,7.667e-4 -0.014,-0.0037 -0.01932,-0.012835 -0.0058,-0.012221 -0.0085,-0.024966 -0.01028,-0.038233 -0.0023,-0.019775 -0.0034,-0.038924 0.0028,-0.057941 0.0051,-0.017885 0.01701,-0.031465 0.02986,-0.044751 0.01311,-0.012647 0.0296,-0.020773 0.04652,-0.02759 0.02775,-0.00593 9.38e-4,5.863e-4 -0.01152,-0.00176 -0.01187,-0.00489 -0.01241,-0.00828 -0.01418,0.00535 -0.0034,0.00985 -0.0099,0.010551 -0.01787,0.016159 -0.01241,0.0076 -0.0255,0.015375 -0.04005,0.018332 0.04604,-0.013568 0.09593,0.014437 0.107968,0.057808 0.002,0.01968 -0.0037,0.037476 -0.02111,0.048094 -0.03621,0.011829 -0.07201,-0.00651 -0.0844,-0.040354 -0.0062,-0.02668 0.0302,-0.049694 0.05046,-0.056294 0.01613,-0.00527 0.03405,-0.00172 0.05104,-0.00261 0.04553,0.013414 0.06949,0.049609 0.06242,0.096641 -0.0014,0.00973 -0.008,0.018126 -0.01187,0.02719 0.126524,-0.1578509 -0.03929,-0.280767 -0.165799,-0.1229157 v 0 c -0.0082,0.014164 -0.01994,0.026873 -0.02419,0.042496 -0.01912,0.070319 0.0198,0.1257435 0.08512,0.1510193 0.02137,2.675e-4 0.04351,0.00612 0.06417,8.117e-4 0.06877,-0.017696 0.09349,-0.083092 0.09792,-0.1429894 -0.0014,-0.013312 -0.0014,-0.026946 -0.0046,-0.039924 -0.021,-0.079484 -0.09572,-0.1203062 -0.177407,-0.1067248 -0.07777,0.026938 -0.124096,0.069719 -0.130884,0.1527459 0.0099,0.088173 0.056,0.1474331 0.159702,0.1283258 0.04305,-0.012647 0.08349,-0.031934 0.118567,-0.059403 0.05437,-0.047197 0.08918,-0.1033499 0.09009,-0.1756631 -0.0046,-0.069022 -0.02627,-0.1305928 -0.08831,-0.1712656 -0.06194,-0.030797 -0.11527,-0.036024 -0.179977,-0.0092 -0.04388,0.019099 -0.08519,0.042996 -0.117982,0.07761 -0.03456,0.037846 -0.0632,0.079407 -0.07651,0.1287979 -0.01134,0.045847 -0.01471,0.091795 -0.0069,0.1385817 0.009,0.052819 0.02669,0.1027192 0.06334,0.1442047 0.05795,0.056882 0.119063,0.082675 0.203066,0.075548 0.0814,-0.012272 0.157451,-0.039321 0.220584,-0.092025 0.07536,-0.073995 0.104779,-0.1357897 0.106639,-0.2401444 -0.0069,-0.099931 -0.03624,-0.1920129 -0.131238,-0.2460104 -0.01489,-0.00535 -0.02912,-0.012221 -0.04445,-0.016073 -0.06246,-0.015681 -0.127074,-0.00298 -0.186406,0.017471 -0.19298,0.072645 -0.11667,0.2601256 0.0763,0.1874797 z" />
        </g>
      </g>
    </g>
  </g>
</svg>
